0	1044.23539120271	893.1401252422676	1075.6705058583984	1380.3193631393244	1792.7036687961095	689720.0676943738	903130.8090601653	1302.0	1.348e-05	2.196e-06	7.767e-09	5.077e-09	6.596e-07	0.04479	5.647e-05	6.852e-07	4.311e-07	0.6382	0.3169	0.0	0.0	0.0	0.0	17.67	1.923e-06	1.0	8.758	0.0	1.0	0.0	0.0	0.0
1	1418.701625614904	951.1983240959718	1487.1138821863706	857.6892890833899	478.0967030187468	167265.76262906776	385406.15232607845	322.5	3.634e-05	5.51e-06	1.949e-08	1.369e-08	1.778e-06	0.1077	0.000199	2.242e-07	1.2e-06	0.598	0.2941	0.0	0.0	0.0	0.0	429.7	5.368e-06	1.0	298.3	0.0	1.0	0.0	0.0	0.0
2	1556.6561578696185	1339.0887953057731	102.60242885428983	1780.995938912898	1430.9667575930273	254553.72137596694	859017.2700135065	2793.0	7.821e-06	1.321e-06	4.673e-09	2.944e-09	3.826e-07	0.02663	2.701e-05	5.284e-07	2.788e-07	0.6447	0.3209	0.007806	0.0	0.0	0.0	0.0	0.0	0.0	1244.0	0.972	0.02804	765.7	1.0	0.0
3	1711.4509684809343	611.2647429921929	814.0985269982132	1446.995850782893	412.19341501378796	282367.59206332493	703886.7017287482	1607.0	1.137e-05	1.865e-06	6.596e-09	4.282e-09	5.563e-07	0.038	4.605e-05	6.651e-07	3.076e-07	0.5968	0.2965	0.0	0.0	0.002516	0.06613	22.65	0.0	1.0	2912.0	0.2571	0.7429	0.0	0.0	0.0
4	1553.9236627273901	1754.5454746092776	208.04189855132026	1742.5901354865857	1591.4470842331668	133761.60749993686	359976.0606104711	2600.0	8.244e-06	1.389e-06	4.911e-09	3.103e-09	4.033e-07	0.02802	2.898e-05	5.365e-07	2.852e-07	0.6482	0.3226	0.001152	0.0	0.0	0.0	0.0	0.0	0.0	1154.0	1.0	0.0	1701.0	0.992	0.008027
5	1792.0610426973042	1378.4586507205843	70.62543308280021	715.4225773736862	574.9812519250524	315695.58023517585	204452.51503553006	276.7	3.635e-05	5.358e-06	1.895e-08	1.37e-08	1.779e-06	0.09786	0.0002099	6.04e-08	1.552e-06	0.3951	0.193	0.3138	0.0	0.0	0.0	0.0	0.0	0.0	2108.0	0.8849	0.1151	844.1	1.0	0.0
6	83.64385556997905	1859.269219362791	401.3288713356977	1545.599645093021	625.2383715684389	601021.694795286	513510.7310313285	2042.0	9.469e-06	1.568e-06	5.545e-09	3.565e-09	4.632e-07	0.03186	3.653e-05	4.922e-07	2.821e-07	0.5737	0.2852	0.03439	0.07293	0.0	0.001836	15.46	1.0	0.0	0.0	0.0	0.0	3901.0	0.4656	0.5344
7	1983.4573267898315	799.3845400957841	1117.7769434690497	1209.29186296927	1790.5980897822933	695400.3667021329	972397.4500570045	881.7	1.779e-05	2.842e-06	1.005e-08	6.698e-09	8.702e-07	0.05794	8.138e-05	7.031e-07	5.413e-07	0.6298	0.3121	0.0	0.0	0.0	0.0	96.58	0.0	1.0	3784.0	0.2112	0.7888	0.0	0.0	0.0
8	1501.0754689370892	1886.3830608111127	1603.2938020327986	777.6615176720161	1666.2148755870562	390642.0618863446	119585.76929725273	242.3	4.452e-05	6.649e-06	2.351e-08	1.678e-08	2.178e-06	0.126	0.000252	1.46e-07	1.687e-06	0.5863	0.2874	0.0	0.0	0.0	0.0	0.2355	1.0	0.0	0.0	0.0	0.0	143.1	0.2901	0.7099
9	675.1817574927345	1404.4766217767954	503.2167305173189	69.20216605496017	1936.8278355918455	218469.83764050648	497644.8548345298	0.001782	0.8429	0.08013	0.0002845	0.0003191	0.04137	0.0	0.03415	0.0006014	0.0	0.0001941	5.686e-05	0.0	0.0	0.0	0.0	0.0	0.0	0.0	5.361	1.0	0.0	998.1	0.5944	0.4056
10	1012.6841644744036	623.1262379609486	290.82221137737935	1429.3754914940107	1135.6759474085175	15665.023609630636	205846.41514685188	1508.0	1.199e-05	1.964e-06	6.944e-09	4.516e-09	5.867e-07	0.04002	4.9e-05	6.28e-07	7.817e-08	0.6128	0.3044	0.001321	0.0	0.0414	0.0	0.0	0.0	0.0	407.7	0.6256	0.3744	34.31	1.0	0.0
11	1668.141835047371	1266.8977944853013	1230.987137612956	1333.1805219859045	508.44177137729827	105852.48205523108	282483.6046188127	1175.0	1.45e-05	2.35e-06	8.311e-09	5.46e-09	7.094e-07	0.04795	6.221e-05	4.59e-07	3.458e-07	0.6361	0.3157	0.0	0.0	0.0	0.0001556	0.0	0.0	0.0	351.4	0.3826	0.6174	8.524e-05	1.0	0.0
12	1366.156620321204	1512.9777914554966	338.00307003591814	382.7058650826616	1807.650269471829	386668.848519978	796492.8771768495	23.06	0.000259	3.439e-05	1.216e-07	9.768e-08	1.268e-05	0.1212	0.0008985	3.862e-06	2.41e-05	0.5997	0.2778	0.0	0.0	0.0	0.0	0.0	0.0	0.0	681.2	1.0	0.0	969.3	0.9957	0.004323
13	1420.8229108394692	183.86746783682295	218.3357902982234	1964.1640769634344	635.9228923048515	502009.70677053696	148076.26010102752	3935.0	6.037e-06	1.034e-06	3.657e-09	2.272e-09	2.953e-07	0.02068	1.924e-05	4.19e-07	2.441e-07	0.6151	0.3063	0.01709	0.0	0.03657	0.004251	0.0001117	0.0	1.0	2636.0	0.328	0.672	0.0	0.0	0.0
14	184.39456737270342	742.1124417568298	1189.176769100107	1315.888625049946	119.98010410945851	900357.4252498475	749181.9763660001	1755.0	9.604e-06	1.554e-06	5.494e-09	3.616e-09	4.698e-07	0.0317	4.157e-05	6.987e-07	4.377e-07	0.4094	0.2032	0.0	0.2048	0.0	0.1509	741.8	0.6785	0.3215	0.0	0.0	0.0	106.1	0.0	1.0
15	30.64043219835548	1480.4683133333508	1209.1605481675856	1870.5793162906716	1241.3826690938931	831656.9654525847	82992.49166415607	3448.0	6.607e-06	1.124e-06	3.975e-09	2.487e-09	3.232e-07	0.02257	2.193e-05	5.811e-07	3.106e-07	0.6057	0.3015	0.0	0.07018	0.0	0.0	569.2	1.0	0.0	0.0	0.0	0.0	1088.0	0.03142	0.9686
16	1918.4235930936898	646.334843488333	297.43623220901924	622.7948629681366	1181.6616969574316	687101.1252753086	235755.9918603884	237.8	3.765e-05	5.426e-06	1.919e-08	1.419e-08	1.842e-06	0.09029	0.0002195	7.589e-08	1.94e-06	0.2958	0.1435	0.4701	0.0	0.0	0.0	0.0	0.0	0.0	5342.0	0.4002	0.5998	39.55	1.0	0.0
17	215.91344897422093	1597.3856900532826	1812.6968060956526	870.580409790282	322.8734391415106	5372.345214852727	391755.04831525625	379.8	3.125e-05	4.75e-06	1.68e-08	1.177e-08	1.529e-06	0.09318	0.0001701	1.935e-07	1.011e-06	0.5319	0.2617	0.0	0.002933	0.0	0.1101	1893.0	0.9816	0.01839	0.0	0.0	0.0	1255.0	0.0	1.0
18	1276.0120144706164	1061.610227229095	1799.9161750890312	367.09772221102276	941.8279257418269	322766.9638153277	50447.70293171084	18.92	0.0003051	4.02e-05	1.422e-07	1.15e-07	1.493e-05	0.07784	0.0009003	5.385e-06	2.938e-05	0.6305	0.2903	0.0	0.0	0.0	0.0	1266.0	0.1774	0.8226	31.64	0.0	1.0	0.0	0.0	0.0
19	1804.8115379222943	1577.8365040219921	25.039547565277328	1391.116802295071	364.7307704030388	777034.5602419607	163091.24265852285	1617.0	1.093e-05	1.783e-06	6.303e-09	4.115e-09	5.347e-07	0.03635	4.552e-05	4.532e-07	2.961e-07	0.5263	0.2613	0.1758	0.0	0.0	0.0002245	0.0	0.0	0.0	1955.0	0.9789	0.02113	1278.0	1.0	0.0
20	152.49668900867485	1461.6767781176104	1671.5150495031226	788.0339736035107	481.6298535291181	961472.805805623	207966.57080140634	927.9	1.176e-05	1.76e-06	6.223e-09	4.43e-09	5.753e-07	0.03352	6.63e-05	5.444e-08	4.369e-07	0.1596	0.07827	0.0	0.7285	0.0	0.0	1512.0	0.9792	0.0208	0.0	0.0	0.0	982.4	0.0	1.0
21	564.913128959585	110.71063820370524	1529.8295748808437	477.696964188368	220.40365568087356	84880.67572493336	705041.3849133857	295.7	2.427e-05	3.347e-06	1.184e-08	9.148e-09	1.187e-06	0.03732	0.0001267	3.725e-07	2.446e-06	0.1	0.04756	0.0	0.0	0.04343	0.7715	3038.0	0.2451	0.7549	98.18	0.0	1.0	0.0	0.0	0.0
22	1984.9156865524496	1497.0576398154283	826.7572171890612	757.7635649529971	392.97480020404595	997552.1621347273	49575.9764601282	224.7	4.699e-05	6.989e-06	2.471e-08	1.77e-08	2.299e-06	0.1311	0.0002679	1.651e-07	1.844e-06	0.5831	0.2855	0.0	0.0	0.0	0.0	0.0	0.0	0.0	1828.0	0.7842	0.2158	361.1	1.0	0.0
23	318.68762655910484	1270.4155727130349	1771.9281006075794	1894.2578953952502	253.98843324627208	327019.63417201117	101828.95804335334	3345.0	6.884e-06	1.173e-06	4.149e-09	2.591e-09	3.367e-07	0.02353	2.261e-05	5.336e-07	2.793e-07	0.6485	0.3229	0.0	0.004958	0.0	0.000139	2042.0	0.8029	0.1971	0.0	0.0	0.0	545.6	0.0	1.0
24	682.0127761524657	621.3651326202742	1151.799961036074	1287.0096782113221	256.69829698056554	318307.6288336737	656160.5310495524	1223.0	1.352e-05	2.18e-06	7.708e-09	5.091e-09	6.614e-07	0.04448	5.94e-05	4.896e-07	3.078e-07	0.549	0.2723	0.0	0.0	0.0009963	0.1332	473.2	0.2729	0.7271	0.002903	0.0	1.0	0.0	0.0	0.0
25	273.21763302735275	1341.8359473085648	1618.92101614053	529.059208815516	606.3911005275961	738495.2190213857	184820.96603967043	76.45	0.0001022	1.434e-05	5.071e-08	3.852e-08	5e-06	0.1966	0.0005723	1.534e-07	6.59e-06	0.5425	0.2603	0.0	0.0	0.0	0.0	1338.0	0.9441	0.05587	0.0	0.0	0.0	689.8	0.0	1.0
26	582.7291063562961	170.1354025151712	1041.9879973634443	1015.4184815397967	1479.355254538885	236351.4678313436	184141.80366934836	580.4	2.329e-05	3.625e-06	1.282e-08	8.772e-09	1.139e-06	0.07303	0.000118	1.228e-07	9.801e-07	0.5599	0.2766	0.0	0.0	0.09027	0.0	784.5	0.1439	0.8561	92.21	0.0	1.0	0.0	0.0	0.0
27	1022.675892066565	1312.6539035468734	546.9429752300023	1513.2947991718268	842.5980131021292	124562.24411336416	402663.9396221608	1718.0	1.105e-05	1.825e-06	6.453e-09	4.161e-09	5.407e-07	0.03711	4.332e-05	4.92e-07	2.929e-07	0.6396	0.3179	0.005316	0.0	0.0	0.0	0.0	0.0	0.0	120.2	1.0	0.0	450.7	0.9115	0.08852
28	1327.4701770067466	892.4803455671215	1865.4524537545262	825.29441909782	845.9482916861999	393796.38908216666	692536.7968043447	288.2	3.936e-05	5.933e-06	2.098e-08	1.483e-08	1.926e-06	0.1147	0.0002186	2.425e-07	1.373e-06	0.5935	0.2915	0.0	0.0	0.0	0.0	2176.0	0.1126	0.8874	239.3	0.0	1.0	0.0	0.0	0.0
29	1449.8800907434863	971.4304405034152	677.7502828782906	455.02263973678413	1551.3823899763463	818917.0572328363	612992.8279315936	46.2	0.0001492	2.041e-05	7.216e-08	5.624e-08	7.299e-06	0.1982	0.0007398	7.944e-07	1.158e-05	0.5436	0.2573	0.0	0.0	0.0	0.0	0.0	0.0	0.0	786.3	0.5928	0.4072	36.06	1.0	0.0
30	841.5598289951847	908.5350735298617	617.5062351230098	1698.2750614249662	1447.5344917511852	88240.24072060791	215556.94112959862	2448.0	8.563e-06	1.437e-06	5.082e-09	3.223e-09	4.189e-07	0.02905	3.072e-05	3.307e-07	1.832e-07	0.6367	0.3168	0.009306	0.008087	0.0	0.0	0.0	0.0	0.0	14.58	1.0	0.0	33.89	0.9999	8.363e-05
31	915.8045063794805	518.67261555703	1336.0619898506627	1577.854983360041	991.0815149505108	291720.5113865435	794253.491793474	1935.0	1.018e-05	1.69e-06	5.976e-09	3.831e-09	4.977e-07	0.0343	3.864e-05	7.817e-07	4.575e-07	0.6449	0.3206	0.0	0.0	0.000167	0.0	1051.0	0.103	0.897	147.7	0.0	1.0	0.0	0.0	0.0
32	107.90417925984346	437.3616010414982	479.6219687987889	69.64345726838866	1031.836505513219	354640.83343521843	20600.52690041521	0.001792	0.8423	0.08019	0.0002847	0.0003189	0.04134	0.0	0.03451	0.0007486	0.0	0.0002034	5.946e-05	0.0	0.0	0.0	0.0	27.22	1.0	1.359e-05	0.0	0.0	0.0	20.07	0.0	1.0
33	1932.4881872700498	274.04458955987405	1680.432594751233	264.48708094258757	320.20172785376013	425014.65263436	435621.25841519766	4.941	0.000893	0.0001109	3.922e-07	3.369e-07	4.37e-05	2.07e-07	0.0006776	2.658e-05	9.255e-05	0.6978	0.3004	0.0	0.0	0.0	0.0	2851.0	0.0	1.0	4460.0	0.006234	0.9938	0.0	0.0	0.0
34	1321.277825319196	49.638660986570194	1843.6454190231577	1000.1084525730117	1294.1523498357024	894242.4566427463	393820.59873592266	1544.0	8.645e-06	1.342e-06	4.747e-09	3.256e-09	4.23e-07	0.027	4.414e-05	3.662e-07	9.149e-07	0.2009	0.09922	0.0	0.0	0.6728	0.0	4306.0	0.0524	0.9476	1491.0	0.0	1.0	0.0	0.0	0.0
35	1472.794421840752	1450.387115253527	1846.1156082458929	731.52662234213	1220.3113396961712	945509.5482755329	913015.0308472308	202.7	5.057e-05	7.479e-06	2.645e-08	1.905e-08	2.474e-06	0.1381	0.0002907	1.353e-07	2.086e-06	0.5786	0.2829	0.0	0.0	0.0	0.0	307.6	0.2938	0.7062	1.521e-05	0.0	1.0	0.0	0.0	0.0
36	1305.328962610628	1781.1718181249985	543.342357992314	466.82551923837576	61.15200322470168	579233.040788798	44215.69208746156	52.78	0.0001334	1.832e-05	6.48e-08	5.029e-08	6.527e-06	0.1922	0.0006809	6.444e-07	1.006e-05	0.5187	0.2461	0.0	0.0	0.0	0.04211	0.0	0.0	0.0	402.1	1.0	0.0	1548.0	0.8863	0.1137
37	21.821288043317054	633.1846735258607	500.05722639180993	1725.4208427205542	204.37672058272096	850268.7631974386	447269.24062667624	3073.0	6.916e-06	1.163e-06	4.114e-09	2.603e-09	3.383e-07	0.02349	2.45e-05	7.63e-07	6.869e-07	0.5322	0.2648	0.03634	0.08936	0.03395	0.01977	36.84	1.0	0.0	0.0	0.0	0.0	81.28	0.02747	0.9725
38	680.7083732165938	1960.374025595789	1254.652844460427	712.4143354671445	1457.423896258441	512469.86663220864	87403.1688234149	187.5	5.345e-05	7.872e-06	2.784e-08	2.014e-08	2.615e-06	0.1435	0.0003088	8.357e-08	2.296e-06	0.5752	0.2809	0.0	0.0	0.0	0.0	218.4	1.0	0.0	0.0	0.0	0.0	2168.0	0.2299	0.7701
39	594.3707125720157	764.5810755709684	340.9345586160256	1480.4756861955805	1184.1039301437174	162682.2598713109	206062.1611153687	1612.0	1.156e-05	1.903e-06	6.728e-09	4.353e-09	5.656e-07	0.03873	4.605e-05	3.204e-07	2.268e-07	0.6378	0.3169	0.0005265	0.005954	0.0	0.0	0.0	0.0	0.0	16.67	1.0	0.0	77.02	0.9196	0.0804
40	1886.8413148077148	272.7301711003697	592.5297006007377	1918.59354595158	952.131463302865	956394.6423640276	83913.6285943272	4094.0	5.687e-06	9.71e-07	3.434e-09	2.14e-09	2.782e-07	0.01945	1.848e-05	1.777e-07	2.147e-07	0.5507	0.2742	0.02408	0.0	0.1246	0.006898	59.83	0.0	1.0	5713.0	0.2799	0.7201	0.0	0.0	0.0
41	804.5438400084912	1499.2637513622965	1362.9378775107277	1350.5789092378645	881.7139308611318	632826.1973010921	94672.4296580637	1221.0	1.411e-05	2.292e-06	8.104e-09	5.314e-09	6.904e-07	0.04676	6.001e-05	5.292e-07	3.676e-07	0.637	0.3162	0.0	0.0	0.0	0.0	220.1	1.0	0.0	0.0	0.0	0.0	393.6	0.007739	0.9923
42	221.19775312404835	936.6538216713278	967.755129186809	1712.2283384421612	296.4683901843487	521103.35050562426	217078.918581597	2554.0	8.268e-06	1.389e-06	4.913e-09	3.112e-09	4.045e-07	0.02807	2.947e-05	5.707e-07	3.068e-07	0.6258	0.3114	0.0	0.03233	0.0	0.00235	245.4	1.0	3.257e-07	0.0	0.0	0.0	221.1	0.0	1.0
43	1533.8543653324527	228.53430923656302	1634.876863712381	1429.544217559336	717.2075378006502	796934.6262051656	728554.1473058546	1927.0	9.389e-06	1.537e-06	5.436e-09	3.535e-09	4.593e-07	0.03133	3.836e-05	1.012e-07	5.451e-07	0.4798	0.2383	0.0	0.0	0.2504	0.0	2683.0	7.348e-05	0.9999	2195.0	0.0	1.0	0.0	0.0	0.0
44	1653.523500647805	1904.881746284489	1700.7256741287863	660.0183090099841	1336.7571426866293	423505.8409992045	865059.6369762078	149.8	6.277e-05	9.132e-06	3.229e-08	2.365e-08	3.071e-06	0.1589	0.0003659	3.976e-08	3.007e-06	0.5655	0.2752	0.0	0.0	0.0	0.0	0.0002875	1.0	0.0	0.0	0.0	0.0	43.58	0.3373	0.6627
45	745.0667805471506	1144.7862869469266	576.4838804301368	13.348292440256577	1431.1629655202823	214058.53422824896	534720.3814836276	0.00032	0.8248	0.07741	0.0003055	0.000534	0.06968	0.0	0.02721	2.208e-05	0.0	6.426e-09	2.152e-09	0.0	0.0	0.0	0.0	0.0	0.0	0.0	5.186	1.0	0.0	286.4	0.6913	0.3087
46	431.58381270787964	322.2651217840222	1702.708134495138	871.7614407218301	592.2372007345273	349959.66853002313	764391.492894001	402.4	2.952e-05	4.489e-06	1.587e-08	1.112e-08	1.444e-06	0.08808	0.0001606	8.412e-07	2.949e-06	0.5041	0.248	0.0	0.007022	0.1526	0.0	4196.0	0.313	0.687	1.4	0.0	1.0	0.0	0.0	0.0
47	1898.611371506103	1670.9781118779124	1454.3412310744156	444.642441145791	329.07152326259	45244.658315751825	527995.7932505975	42.51	0.0001591	2.167e-05	7.664e-08	5.997e-08	7.784e-06	0.1946	0.0007658	1.091e-06	1.27e-05	0.5465	0.258	0.0	0.0	0.0	0.0	0.0	0.0	0.0	190.5	0.779	0.221	17.47	1.0	0.0
48	1588.8578542699156	642.5907718546745	1573.4904557744687	235.94349326899305	1917.0208479024113	192302.0904021359	457133.79691875185	3.038	0.001323	0.0001609	5.69e-07	4.993e-07	6.476e-05	0.0	0.0007379	2.907e-05	0.0001145	0.7054	0.2922	0.0	0.0	0.0	0.0	1460.0	0.0	1.0	1521.0	6.083e-10	1.0	0.0	0.0	0.0
49	1391.8145321298696	179.13222577432572	1638.0247013607816	129.7171532042713	1899.907087192965	484664.3425012913	704927.0831566436	0.004847	0.5114	0.05539	0.0001961	0.0001931	0.02503	0.0	0.07228	0.006968	0.003188	0.2872	0.03821	0.0	0.0	0.0	0.0	2786.0	0.008905	0.9911	1665.0	0.0	1.0	0.0	0.0	0.0
50	686.0461142577973	138.01168843303176	807.3464734424531	1897.0398856540528	468.9337282823406	885071.0230601244	99597.05458831448	3912.0	5.895e-06	1.005e-06	3.553e-09	2.219e-09	2.883e-07	0.02015	1.934e-05	1.513e-07	1.234e-07	0.5571	0.2774	0.002526	0.01049	0.1313	0.001113	306.9	0.00345	0.9966	178.6	0.0	1.0	0.0	0.0	0.0
51	564.3383928387096	966.421969349209	1462.5982777472348	1554.962937575054	1179.4500774474159	695831.3607664738	639880.7882624086	1894.0	1.027e-05	1.701e-06	6.016e-09	3.865e-09	5.022e-07	0.03456	3.942e-05	6.625e-07	3.741e-07	0.6302	0.3133	0.0	0.02183	0.0	0.0	973.7	0.6382	0.3618	0.0	0.0	0.0	79.42	0.0	1.0
52	58.139868480860834	1230.139443957228	1826.0667600522693	1932.1257173480178	520.2467917796819	543506.8396289527	273601.73857687827	3629.0	6.455e-06	1.103e-06	3.901e-09	2.429e-09	3.157e-07	0.02209	2.085e-05	5.643e-07	2.988e-07	0.6346	0.316	0.0	0.02726	0.0	6.84e-07	2610.0	0.7575	0.2425	0.0	0.0	0.0	599.0	0.0	1.0
53	914.0066309943272	869.9123653751651	1365.0985873567545	1578.3957525023914	356.37221060443545	813948.0922850341	392968.1537412229	1962.0	1.003e-05	1.666e-06	5.893e-09	3.777e-09	4.908e-07	0.03383	3.81e-05	8.278e-07	4.672e-07	0.6363	0.3164	0.0	0.0	0.0	0.01337	466.7	0.2814	0.7186	0.000496	0.0	1.0	0.0	0.0	0.0
54	799.763742671196	1597.9520080542457	921.2444312780455	350.77431776478176	1389.157860338933	979920.6993602292	15340.919799346044	15.07	0.0003689	4.823e-05	1.706e-07	1.391e-07	1.805e-05	0.01914	0.000849	7.625e-06	3.659e-05	0.6722	0.3073	0.0	0.0	0.0	0.0	1.103	1.0	0.0	0.0	0.0	0.0	943.8	0.4127	0.5873
55	1004.0711174570025	1624.0289755330841	1272.3885097627538	595.452921763057	191.6270481816356	729424.792149393	538326.661795603	322.4	2.675e-05	3.827e-06	1.353e-08	1.008e-08	1.309e-06	0.06107	0.0001553	1.142e-08	1.476e-06	0.1889	0.0914	0.0	0.0	0.0	0.6584	30.13	1.0	0.0	0.0	0.0	0.0	397.2	0.1878	0.8122
56	460.1755499726076	1786.4567876071817	686.7325603907348	315.10775468144266	587.7761977118535	302280.2176132788	262909.93538137956	9.892	0.0005146	6.599e-05	2.334e-07	1.941e-07	2.518e-05	0.00015	0.0006855	1.111e-05	5.083e-05	0.6894	0.3091	0.0	0.0	0.0	0.0	13.51	1.0	0.0	0.0	0.0	0.0	2658.0	0.4315	0.5685
57	814.1251709841077	1224.0777292911612	482.6726226393698	379.2010358997867	1838.7246649156173	744636.6722915913	673167.4705531844	22.1	0.0002683	3.555e-05	1.257e-07	1.012e-07	1.313e-05	0.1127	0.0009015	4.12e-06	2.52e-05	0.6058	0.2803	0.0	0.0	0.0	0.0	0.0	0.0	0.0	42.6	1.0	0.0	453.2	0.7833	0.2167
58	1263.305190088161	764.2418632396577	731.4227971671213	1711.5573441884458	880.2071801243887	657844.3873487327	356344.25034578785	2467.0	8.556e-06	1.438e-06	5.083e-09	3.221e-09	4.185e-07	0.02904	3.051e-05	8.851e-07	5.361e-07	0.647	0.3219	0.001218	0.0	0.0007615	0.0	0.0	0.0	0.0	508.8	0.3642	0.6358	5.199e-05	1.0	0.0
59	1042.1218996792322	156.06708894549467	1483.211177558061	1446.2350573424205	615.7283375778392	415293.78857262095	185050.9425423718	1639.0	1.115e-05	1.828e-06	6.465e-09	4.197e-09	5.453e-07	0.03724	4.516e-05	2.108e-07	2.882e-07	0.5843	0.2903	0.0	0.0	0.08264	0.005468	2182.0	0.05954	0.9405	680.8	0.0	1.0	0.0	0.0	0.0
60	463.67533991985687	1726.2704444229719	1756.2563846510968	1500.2429523229255	1739.5589634129744	650702.146662093	65520.21384898011	1731.0	1.089e-05	1.796e-06	6.35e-09	4.1e-09	5.327e-07	0.03653	4.295e-05	5.32e-07	3.143e-07	0.6184	0.3073	0.0	0.03771	0.0	0.0	1417.0	1.0	4.775e-08	0.0	0.0	0.0	1338.0	0.0	1.0
61	1445.2667734473898	232.66397181690053	1800.6216079749147	1267.2632132161473	1389.3582013586704	91733.61547511781	208020.24237326538	1013.0	1.611e-05	2.591e-06	9.163e-09	6.065e-09	7.879e-07	0.05287	7.149e-05	6.186e-07	4.911e-07	0.6322	0.3135	0.0	0.0	0.001344	0.0	3698.0	0.02104	0.979	1813.0	0.0	1.0	0.0	0.0	0.0
62	128.5621748938971	1955.2975903636157	806.2648965502106	1867.3274845169115	764.4069556327648	571807.8447436482	737796.8282187529	3303.0	6.887e-06	1.172e-06	4.143e-09	2.592e-09	3.369e-07	0.02352	2.289e-05	5.625e-07	2.978e-07	0.629	0.3132	0.0003286	0.0325	0.0	0.001439	152.7	1.0	0.0	0.0	0.0	0.0	3800.0	0.366	0.634
63	1057.7919930553178	1616.8321350109047	1905.4317084824147	1716.0836965204319	1331.2683605294503	997876.7317598491	419980.26783697575	2481.0	8.525e-06	1.433e-06	5.067e-09	3.209e-09	4.17e-07	0.02894	3.033e-05	6.238e-07	3.365e-07	0.6484	0.3226	0.0	0.0	0.0	0.0	825.9	0.8932	0.1068	0.0	0.0	0.0	251.2	0.0	1.0
64	1996.6276345803135	1635.8046515658043	670.0014539804935	232.94604666798045	1919.5181419771948	246028.5576663578	136551.32754123805	2.871	0.001386	0.0001681	5.945e-07	5.23e-07	6.783e-05	0.0	0.0007478	2.98e-05	0.0001178	0.7065	0.291	0.0	0.0	0.0	0.0	0.0	0.0	0.0	1981.0	0.9132	0.08676	817.9	1.0	0.0
65	1690.0405932674905	1675.537359277802	1819.4065809881708	1169.477818305786	1579.5131486356381	208523.4179079225	589569.5309696248	799.0	1.908e-05	3.033e-06	1.072e-08	7.184e-09	9.332e-07	0.06176	8.913e-05	4.223e-07	4.625e-07	0.6274	0.3108	0.0	0.0	0.0	0.0	9.72	0.1872	0.8128	1.699e-06	0.0	1.0	0.0	0.0	0.0
66	866.1637073307211	774.7231035174024	1922.3251766835779	848.216057433796	1620.6928703470585	782313.7683191703	928451.7032897129	312.2	3.718e-05	5.629e-06	1.991e-08	1.401e-08	1.819e-06	0.1097	0.0002045	4.378e-07	1.289e-06	0.5967	0.2934	0.0	0.0	0.0	0.0	3881.0	0.3002	0.6998	0.3694	0.0	1.0	0.0	0.0	0.0
67	517.3512462033715	651.6227801152738	1155.6351196895007	304.7982450193096	1060.443896523555	40475.96373832636	586680.2854937118	8.704	0.0005691	7.254e-05	2.566e-07	2.147e-07	2.785e-05	6.93e-05	0.0006718	1.232e-05	5.584e-05	0.6909	0.3076	0.0	0.0	0.0	0.0	558.2	0.4477	0.5523	0.0	0.0	0.0	2.342	0.0	1.0
68	1927.1443951047995	76.39562092090115	1011.9912044334478	397.98702235634835	235.15098362707195	650117.1257090466	845817.1786354368	1292.0	4.776e-06	6.384e-07	2.258e-09	1.801e-09	2.337e-07	0.003212	1.86e-05	2.867e-06	3.018e-06	0.01228	0.005721	0.0	0.0	0.9788	0.0	655.9	0.0	1.0	5529.0	0.1588	0.8412	0.0	0.0	0.0
69	427.89743700433166	1158.5051600875497	1956.5291626385858	1005.7747613391524	370.52844105213086	282056.60988069745	730380.655183625	672.1	1.995e-05	3.101e-06	1.097e-08	7.516e-09	9.762e-07	0.06241	0.0001016	2.684e-07	5.438e-07	0.4696	0.2319	0.0	0.004996	0.0	0.2309	3430.0	0.6139	0.3861	0.0	0.0	0.0	321.4	0.0	1.0
70	1623.7203470985207	1304.091037163791	67.52611465701844	560.6670987522452	1091.1380734007066	356484.0542946583	637627.4572285147	232.4	3.529e-05	5e-06	1.768e-08	1.33e-08	1.727e-06	0.07449	0.0002021	2.783e-08	2.113e-06	0.2157	0.1039	0.6056	0.0	0.0	0.0	0.0	0.0	0.0	1498.0	0.924	0.07596	713.7	1.0	0.0
71	1786.488622082675	174.42421964942406	524.0874001198165	1585.4094439328503	1839.1624490987358	483266.284934188	256216.7179642096	2141.0	9.232e-06	1.534e-06	5.426e-09	3.475e-09	4.516e-07	0.03114	3.493e-05	2.429e-07	2.455e-07	0.5912	0.294	0.006312	0.0	0.07736	0.0	60.03	0.0	1.0	5027.0	0.2812	0.7188	0.0	0.0	0.0
72	1893.9944347787934	802.1486765060621	1250.9266519851324	1600.8556737806573	1989.2511423308677	715308.1050270697	926124.3443812887	2019.0	9.871e-06	1.643e-06	5.809e-09	3.716e-09	4.829e-07	0.03332	3.708e-05	9.247e-07	5.241e-07	0.6456	0.321	0.0	0.0	0.0	0.0	249.2	0.0	1.0	2828.0	0.1369	0.8631	0.0	0.0	0.0
73	1538.6743549055482	1366.3080988059332	690.5443791456257	215.96071132763294	1674.0407360817783	267169.806260068	794814.525090804	2.025	0.001848	0.0002209	7.814e-07	6.975e-07	9.046e-05	0.0	0.000825	3.9e-05	0.0001449	0.7161	0.2807	0.0	0.0	0.0	0.0	0.0	0.0	0.0	612.4	0.9745	0.02554	337.4	1.0	0.0
74	1711.3790585777424	77.05415667284863	274.69311650995525	564.6174669977532	397.6052430135636	939340.1994655825	996592.9389086314	2242.0	3.678e-06	5.217e-07	1.845e-09	1.386e-09	1.8e-07	0.007842	2.111e-05	1.757e-06	2.091e-06	0.02287	0.01102	0.08925	0.0	0.869	0.0	7.486	0.0	1.0	4755.0	0.3169	0.6831	0.0	0.0	0.0
75	1029.0331288533837	668.5587168057286	1077.8282336939383	1495.9812960200609	1004.4966438066401	762628.9317925471	558272.1288902715	1691.0	1.112e-05	1.833e-06	6.482e-09	4.187e-09	5.44e-07	0.03729	4.395e-05	1.23e-06	1.026e-06	0.6276	0.3119	0.0	0.0	0.02318	0.0	179.9	1.861e-06	1.0	127.4	0.0	1.0	0.0	0.0	0.0
76	229.7529988840332	1181.1451508480122	1766.4327136561585	1892.7530276151865	1807.7813860514161	779800.2310334421	760227.9155269812	3498.0	6.578e-06	1.121e-06	3.964e-09	2.476e-09	3.218e-07	0.02249	2.162e-05	6.165e-07	3.317e-07	0.6186	0.308	0.0	0.05082	0.0	0.0	2298.0	0.7417	0.2583	0.0	0.0	0.0	474.2	0.0	1.0
77	1338.0888124824178	1222.577796774814	1375.1235332701326	1521.2624349804548	1969.550693888163	59320.5091456913	710622.3319421803	1736.0	1.099e-05	1.816e-06	6.421e-09	4.138e-09	5.376e-07	0.03692	4.29e-05	4.767e-07	2.838e-07	0.6433	0.3197	0.0	0.0	0.0	0.0	9.632	8.277e-06	1.0	2.624	0.0	1.0	0.0	0.0	0.0
78	475.49673142749856	265.3022283277303	1058.403538510297	195.93192883354595	1024.8877435686118	948309.3059475407	927035.4476507924	1.209	0.002863	0.0003357	1.188e-06	1.08e-06	0.0001401	0.0	0.001011	0.0001217	0.0002573	0.7517	0.2436	0.0	0.0	0.0	0.0	816.8	0.2322	0.7678	17.86	0.0	1.0	0.0	0.0	0.0
79	776.5322544039244	1271.3515741051147	118.50377728107904	1268.4667139412682	1907.2058660413027	640284.3022349253	523003.0776123616	1214.0	1.345e-05	2.165e-06	7.655e-09	5.066e-09	6.582e-07	0.04417	5.968e-05	4.396e-07	3.464e-07	0.5291	0.2624	0.1642	0.0	0.0	0.0	0.0	0.0	0.0	136.9	1.0	0.0	808.1	0.8029	0.1971
80	901.1121059421706	1360.0670086498271	1011.0924987120725	1000.4729508167384	43.30837805671813	372086.945134961	2622.1938459127323	505.6	2.64e-05	4.1e-06	1.45e-08	9.945e-09	1.292e-06	0.08246	0.0001348	3.509e-07	7.243e-07	0.6141	0.3033	0.0	0.0	0.0	7.204e-07	0.5155	1.0	0.0	0.0	0.0	0.0	206.9	0.3287	0.6713
81	981.2449499940512	542.2525470937255	678.8668634363817	499.9409303673517	1058.6625107817854	335341.1404553293	83871.60678262425	63.7	0.000117	1.626e-05	5.75e-08	4.41e-08	5.725e-06	0.2011	0.0006337	2.789e-07	8.084e-06	0.5402	0.2579	0.0	0.0	0.0	0.0	5.118	0.0	1.0	234.5	0.1616	0.8384	0.0	0.0	0.0
82	1524.3209220520837	351.2831955333944	1276.423926876236	1500.5043336316403	614.1294951806806	279491.74172571755	926113.8330763876	1761.0	1.071e-05	1.765e-06	6.242e-09	4.03e-09	5.237e-07	0.03591	4.222e-05	5.569e-07	4.313e-07	0.6081	0.3022	0.0	0.0	0.01069	0.04299	1062.0	0.0	1.0	1979.0	0.01258	0.9874	0.0	0.0	0.0
83	703.4146229155049	894.0338573961296	542.1321756866074	90.08272488059147	1796.2721381888955	397804.9834156424	871269.4518589391	0.002261	0.8188	0.08238	0.000292	0.0003095	0.04012	0.0	0.05451	0.001175	0.0	0.002011	0.0004095	0.0	0.0	0.0	0.0	0.0	0.0	0.0	4.257	1.0	0.0	64.08	0.8497	0.1503
84	1452.250094969161	356.9145312771108	566.4669306200611	1334.9928775153203	1045.0693651872111	589962.4418423559	349002.4920430898	1377.0	1.24e-05	2.01e-06	7.106e-09	4.667e-09	6.064e-07	0.041	5.313e-05	4.089e-07	9.127e-07	0.5454	0.2707	0.01368	0.0	0.1292	0.0	20.37	0.0	1.0	2250.0	0.2671	0.7329	0.0	0.0	0.0
85	1184.308785861181	1719.6800134837276	490.0453693965575	587.2667072923176	487.9691813557108	499184.79888242896	606902.017118964	105.6	8.072e-05	1.152e-05	4.075e-08	3.042e-08	3.95e-06	0.1813	0.0004675	3.668e-08	4.544e-06	0.5516	0.2666	0.0	0.0	0.0	0.0	0.0	0.0	0.0	301.0	1.0	0.0	1518.0	0.8458	0.1542
86	895.4308348824362	88.55474678357717	1903.2351241163478	1652.3156021597995	1611.6215743832358	925343.6577194734	58236.091748288105	2883.0	7.104e-06	1.188e-06	4.2e-09	2.674e-09	3.475e-07	0.02405	2.604e-05	3.638e-08	1.32e-07	0.4977	0.2476	0.0	0.0	0.2307	0.0	5525.0	0.1907	0.8093	446.2	0.0	1.0	0.0	0.0	0.0
87	536.3605247134777	597.7265477343191	394.4502937168588	1368.85114700882	1893.72695141703	987663.2039316257	184900.71919451386	1873.0	9.305e-06	1.514e-06	5.354e-09	3.504e-09	4.552e-07	0.03088	3.92e-05	1.497e-06	1.601e-06	0.4325	0.2147	0.1448	0.0779	0.09909	0.0	0.0	0.0	0.0	2.175	1.0	0.0	9.676	0.9998	0.0001579
88	1673.0044918548635	183.99146558369935	1560.1376604031323	1643.0991834976785	1969.2754688976308	312496.4479812579	468172.35721246246	2242.0	9.092e-06	1.519e-06	5.371e-09	3.422e-09	4.447e-07	0.03076	3.347e-05	4.496e-07	2.953e-07	0.6292	0.313	0.0	0.0	0.02697	0.0	2370.0	0.0	1.0	2943.0	0.000237	0.9998	0.0	0.0	0.0
89	993.1114947867748	1809.6753506846346	209.12100348390837	447.8775759671982	1740.3906890795106	80750.30792742342	435629.917824376	44.36	0.0001533	2.092e-05	7.397e-08	5.781e-08	7.503e-06	0.1927	0.0007454	1.004e-06	1.214e-05	0.5367	0.2535	0.01619	0.0	0.0	0.0	0.0	0.0	0.0	272.5	1.0	0.0	2510.0	0.7397	0.2603
90	615.9994475752637	179.4720007929261	866.2356175908749	1766.1933080797048	1096.5632925673874	965027.0495026542	935469.1072845724	3431.0	6.32e-06	1.067e-06	3.772e-09	2.379e-09	3.092e-07	0.02151	2.198e-05	7.366e-08	1.715e-07	0.5117	0.2546	0.0009707	0.02661	0.1846	0.0	383.8	0.05391	0.9461	109.9	0.0	1.0	0.0	0.0	0.0
91	1877.8548623866668	501.2180705750252	155.92058471646996	683.2403847474493	1791.7898426332063	493780.45595038007	682643.468001593	354.2	2.732e-05	3.997e-06	1.413e-08	1.029e-08	1.337e-06	0.07114	0.0001588	1.554e-07	1.254e-06	0.2668	0.1301	0.5318	0.0	0.0	0.0	0.0	0.0	0.0	5571.0	0.3793	0.6207	27.38	1.0	0.0
92	851.8920284187222	749.0741453376601	141.11332601516068	157.59327190994713	1731.3994417591337	628941.7488817654	896752.2570875025	0.04396	0.06603	0.007423	2.627e-05	2.492e-05	0.003232	0.0	0.01422	0.0008033	0.001651	0.8447	0.0619	0.0	0.0	0.0	0.0	0.0	0.0	0.0	180.9	0.9937	0.006331	119.1	1.0	0.0
93	696.7560169597748	1186.8192487474182	773.1780623521249	404.4857673705926	375.74511526662485	687305.1283838948	389967.9892632389	29.38	0.0002128	2.852e-05	1.009e-07	8.023e-08	1.041e-05	0.161	0.0008624	2.401e-06	1.88e-05	0.5712	0.2666	0.0	0.0	0.0	0.0	0.00436	1.0	0.0	0.0	0.0	0.0	246.3	0.3999	0.6001
94	881.8574790143015	707.3823254703989	1070.9836979714355	216.1581316943516	276.6245284656664	353927.7373443655	349056.9531498306	2.034	0.001842	0.0002201	7.787e-07	6.949e-07	9.013e-05	0.0	0.0008239	4.009e-05	0.000146	0.7159	0.2809	0.0	0.0	0.0	0.0	142.6	0.06327	0.9367	14.21	0.0	1.0	0.0	0.0	0.0
95	1084.5494865089718	1041.7332348025916	339.88901146061363	1548.2530415914878	502.5481088211755	715225.141363294	222020.12240530326	1966.0	9.851e-06	1.632e-06	5.77e-09	3.709e-09	4.819e-07	0.03315	3.795e-05	6.078e-07	3.444e-07	0.5991	0.2978	0.06967	0.0	0.0	0.0001529	0.0	0.0	0.0	298.3	1.0	1.436e-06	258.2	1.0	0.0
96	397.2224325202718	811.3275159020503	34.90948483990415	578.1277493470342	859.3122062785714	517827.3740242949	516339.0248492619	401.4	2.096e-05	2.984e-06	1.055e-08	7.899e-09	1.025e-06	0.04613	0.000121	1.38e-08	1.198e-06	0.1379	0.0666	0.7492	0.0	0.0	0.0	0.0	0.0	0.0	17.02	1.0	0.0	241.4	0.7008	0.2992
97	206.73333156392815	1723.3305844150195	607.8797583203022	1039.2126940749267	81.5207426789629	257337.66772965787	901899.9848328744	1092.0	1.263e-05	1.972e-06	6.975e-09	4.757e-09	6.179e-07	0.03984	6.319e-05	1.856e-07	3.318e-07	0.3197	0.158	0.0	0.02444	0.0	0.4579	46.2	1.0	0.0	0.0	0.0	0.0	2714.0	0.4115	0.5885
98	581.3733092287026	1676.0012699851638	941.377972290428	1506.0455131820822	1986.427536546602	700967.0791288418	231454.50848048515	1721.0	1.099e-05	1.813e-06	6.41e-09	4.137e-09	5.375e-07	0.03687	4.321e-05	5.487e-07	3.222e-07	0.6292	0.3127	0.0	0.0212	0.0	0.0	58.36	1.0	0.0	0.0	0.0	0.0	1527.0	0.3182	0.6818
99	1750.2628248182625	489.11199387252043	505.3113501346643	1460.7989146428795	1778.852512837937	224564.29671252958	200487.99894496665	1540.0	1.197e-05	1.965e-06	6.95e-09	4.505e-09	5.854e-07	0.04002	4.813e-05	7.742e-07	4.392e-07	0.6411	0.3185	0.0001995	0.0	9.321e-05	0.0	2.864e-06	0.0	1.0	4076.0	0.329	0.671	0.0	0.0	0.0
