0	3	29.368105357166453	-916731.8493169674	804.8991510971705	1931.7398570036078	502.3656827695001	1477.7125484956614	1608.7685234914957	1.3419516964963738	-0.16695157172541863	0.6014793593967731	882.916470866345	60.46	0.0001143	0.0007439	2.631e-06	4.308e-08	5.592e-06	0.1985	0.0006212	2.215e-05	2.627e-05	0.5413	0.2586	0.0	0.0	0.0	0.0	602200.0	2.402e-09	2.683e-06	9.486e-09	9.043e-13	1.175e-10	8.044e-06	9.579e-09	6.253e-07	5.62e-07	0.0001077	5.352e-05	0.0003711	0.0	0.9995	0.0	0.0	332500.0	1.551e-12	2.934e-06	1.038e-08	5.84e-16	7.589e-14	5.239e-09	5.805e-12	8.586e-07	7.825e-07	2.464e-06	1.225e-06	0.0005734	0.0	0.9994	0.0	0.0	0.0	0.0	2.708	4.636e-06	0.5312	0.001878	1.667e-09	2.347e-07	0.01602	3.626e-05	2.3e-07	3.679e-08	0.4508	0.0	0.0	0.0	1518.0	3.098e-11	0.002275	8.044e-06	3.277e-13	8.084e-10	6.119e-05	4.294e-11	2.145e-13	1e-07	4.607e-09	0.04574	0.06627	0.01378	0.8719	1.317	1.0	0.0
1	3	36.05925568657656	-224196.5956782397	116.65974315215192	339.92049158737416	126.58306722787661	1270.669531581687	1843.7728979241044	-1.0592510263441621	-0.03018721611194719	-1.3155778816015762	1649.874839291495	0.09542	0.01936	0.8554	0.003028	7.313e-06	0.000948	0.0	0.002599	0.09875	0.01122	0.007719	0.0009874	2.555e-07	0.0	0.0	0.0	2137000.0	1.702e-10	6.792e-08	2.402e-10	6.407e-14	8.324e-12	5.588e-07	7.54e-10	1.559e-06	1.408e-06	7.232e-06	3.587e-06	1.229e-05	2.019e-05	0.1328	0.3188	0.5484	36570000.0	1.343e-10	9.763e-08	3.452e-10	5.055e-14	6.569e-12	4.583e-07	4.51e-10	1.312e-06	1.192e-06	1.314e-05	6.543e-06	3.839e-05	7.012e-05	0.105	0.02028	0.0	0.3042	0.5704	0.3153	5.439e-06	0.9965	0.003525	1.942e-09	2.743e-07	0.0	1.85e-06	9.114e-07	8.056e-12	0.0	0.0	0.0	0.0	9.433	7.607e-10	0.09709	0.0003433	8.023e-12	1.983e-08	0.0009635	1.053e-09	5.263e-12	1.574e-06	7.247e-08	0.1748	0.0	0.0	0.7268	1.317	1.0	0.0
2	1	12.497774257122602	16378.718344389577	1142.3977509765507	63.37790347006429	788.2814533404073	1141.9950841731488	1260.9074761208217	-1.1894826883176421	-0.3527338150066317	1.3927874956597588	526.239836370241	1830.0	4.554e-06	6.816e-07	2.41e-09	1.716e-09	2.228e-07	0.01298	2.568e-05	1.113e-06	1.494e-06	0.05722	0.02806	0.0	0.0291	0.0	0.8726	4751.0	1.973e-07	3.125e-08	1.105e-10	7.43e-11	9.651e-09	0.0006357	9.352e-07	1.361e-06	1.289e-06	0.004998	0.002474	0.0	0.01928	0.0	0.0	0.9726	61500.0	4.759e-08	7.651e-09	2.705e-11	1.792e-11	2.328e-09	0.0001561	2.12e-07	1.649e-06	1.402e-06	0.00249	0.001235	1.168e-05	0.0153	0.0	0.0	0.0	0.0	0.9808	966.4	9.642e-08	1.568e-08	5.545e-11	3.469e-11	4.885e-09	0.000342	5.79e-07	1.709e-09	6.313e-10	0.01141	1.133e-18	0.0	0.9882	1.279e-06	0.0121	0.6566	0.002325	0.0001263	0.3122	0.0	0.01658	8.323e-05	0.0	0.0	0.0	0.0	0.0	0.0	1.324	0.9945	0.005517
3	1	32.285441560004685	-350169.7336453906	1294.2864156106689	41.81186788719886	131.22504988581716	1118.2453242212182	1704.6433168065369	-0.973766789038265	1.3812814578458252	-0.7440821983290811	1236.7675521957265	2639000.0	2.303e-11	2.5e-12	8.851e-15	8.697e-15	1.128e-12	0.0	3.337e-12	3.287e-06	3.544e-07	1.431e-11	1.934e-12	0.0	2.924e-10	0.0	1.0	46190000.0	5.924e-12	9.355e-13	3.308e-15	2.231e-15	2.898e-13	1.901e-08	2.843e-11	1.484e-06	1.28e-06	1.063e-07	5.264e-08	0.0	1.894e-05	0.0005112	0.0	0.9995	1327000.0	1.518e-08	2.549e-09	9.015e-12	5.715e-12	7.427e-10	5.152e-05	5.431e-08	1.472e-06	1.284e-06	0.001147	0.0005707	1.315e-06	3.708e-05	0.0003305	0.02896	0.0	0.0	0.9689	1418.0	1.095e-08	1.815e-09	6.418e-12	3.941e-12	5.55e-10	3.903e-05	5.943e-08	1.761e-10	6.71e-11	0.00587	0.00497	0.0	0.9891	1.304e-07	0.01299	0.635	0.002254	0.0001342	0.3319	0.0	0.01763	8.873e-05	0.0	0.0	0.0	0.0	0.0	0.0	1.318	0.999	0.0009823
4	1	7.174980796949946	-307147.98816256144	658.2151037973662	1334.8933610519268	608.2771737850173	999.9224537461002	1144.3803829323294	-1.5145347890537377	0.5269965926454643	-0.8194521262351497	588.6196193952278	85.26	7.816e-05	1.122e-05	3.968e-08	2.946e-08	3.824e-06	0.1828	0.0004549	1.323e-08	3.955e-06	0.5501	0.2665	0.0	0.0	0.0	0.0	57.97	2.533e-05	3.933e-06	1.391e-08	9.541e-09	1.239e-06	0.0791	0.0001294	6.673e-06	4.783e-06	0.2792	0.1379	0.5037	0.0	0.0	0.0	0.0	226.6	9.922e-06	1.572e-06	5.56e-09	3.737e-09	4.854e-07	0.03199	4.697e-05	1.367e-06	2.454e-06	0.4736	0.2345	0.2599	0.0	0.0	0.0	0.0	0.0	0.0	0.5969	0.0002976	4.438e-05	1.569e-07	1.07e-07	1.506e-05	0.9969	0.002674	7.869e-06	2.447e-06	1.696e-05	0.0	0.0	0.0	379.9	1.509e-09	1.414e-07	5.001e-10	1.594e-11	3.937e-08	0.002949	2.091e-09	1.045e-11	4.82e-06	2.22e-07	0.028	0.08708	0.01205	0.8699	1.317	1.0	0.0
5	4	20.99959497666098	183678.50443866034	1262.590870894293	207.34231219793932	424.2244006091609	433.13059603744904	1777.7045906395713	1.3077463835215912	0.3547944782616941	0.9664305740449577	1881.5658564513237	81310.0	2.086e-06	8.882e-09	3.141e-11	7.742e-10	3.216e-09	6.557e-05	2.83e-07	1.372e-05	1.182e-05	0.0002042	9.586e-05	0.0	8.539e-06	0.0	0.9996	518100.0	2.171e-06	2.856e-11	1.01e-13	8.032e-10	1.03e-11	2.314e-07	1.062e-09	9.941e-06	8.445e-06	1.02e-06	4.803e-07	0.0	1.427e-05	0.0	0.0	1.0	266900.0	1.973e-05	2.264e-09	8.005e-12	7.297e-09	6.556e-10	4.562e-05	3.72e-08	1.423e-07	1.197e-07	0.0009121	0.0004539	0.0004642	0.007641	0.01644	0.1937	0.7183	0.0	0.06206	1395.0	0.005092	4.253e-09	1.504e-11	1.884e-06	1.305e-09	9.174e-05	9.896e-07	5.72e-10	5.648e-10	0.013	0.1208	0.0	0.8611	0.1871	0.01399	5.206e-06	1.841e-08	0.0001546	0.002887	0.9828	1.069e-07	0.0001015	3.217e-05	1.455e-06	0.0	0.0	0.0	0.0	1.317	1.0	0.0
6	2	28.859094950510407	241905.94317625463	690.2948784574402	30.575143568550875	63.93258663548405	112.18752054626935	775.1196393306001	-0.38264729500646766	-1.2530197092317144	-0.4447391087371646	1627.7434932866513	4978000.0	1.969e-08	1.856e-09	6.592e-12	7.299e-12	1.898e-13	0.0	7.264e-11	9.827e-06	0.0	4.134e-16	1.244e-16	0.0	7.984e-13	0.0	1.0	5919.0	5.414e-07	5.787e-08	2.049e-10	1.968e-10	1.79e-08	0.0	5.167e-08	2.93e-06	5.572e-08	2.954e-08	2.836e-09	0.0	9.016e-09	0.0	0.0	1.0	13720000.0	5.92e-07	8.923e-08	3.155e-10	2.19e-10	2.393e-13	1.382e-08	1.623e-10	1.44e-06	1.157e-06	1.285e-07	6.3e-08	6.355e-10	1.948e-05	0.0344	0.002303	2.404e-05	0.0	0.9632	224.4	0.03588	0.005309	1.877e-05	1.327e-05	2.578e-09	0.0001721	9.983e-06	4.487e-09	3.209e-09	0.03831	0.002442	0.0	0.9178	0.05395	0.02066	0.9714	0.003458	0.0002219	0.004138	0.0	4.211e-08	0.000147	0.0	0.0	0.0	0.0	0.0	0.0	1.647	0.7995	0.2005
7	2	20.562853070631817	-657508.8725775953	1005.0720719968907	148.89142385900465	158.68105161099786	498.4222778583681	1177.5499183489726	0.29483829441771325	0.25086188939554876	0.314752334695799	385.8833164186842	4.31	0.2445	0.02776	9.823e-05	9.046e-05	2.633e-06	0.0	0.0002605	0.5623	0.1638	0.00119	7.395e-05	0.0	4.193e-08	0.0	0.0	21310000.0	1.791e-08	2.514e-09	8.89e-12	6.61e-12	1.348e-11	4.703e-07	1.539e-09	5.857e-07	5.024e-07	1.209e-06	5.77e-07	0.0	3.998e-07	0.8111	0.0	0.1889	2156000.0	5.517e-08	8.857e-09	3.132e-11	2.046e-11	4.64e-11	3.075e-06	4.566e-09	5.437e-07	4.818e-07	3.268e-05	1.619e-05	4.226e-08	6.499e-06	0.5688	0.1494	0.008393	0.0	0.2733	888.4	0.006316	0.0009912	3.505e-06	2.337e-06	1.761e-09	0.0001224	1.599e-06	1.337e-09	8.17e-10	0.2816	0.02346	0.0	0.6875	0.1334	0.01439	0.9778	0.003458	0.0001588	0.002965	0.001161	1.179e-07	0.0001043	3.093e-08	1.425e-09	0.0	0.0	0.0	0.0	1.33	0.9906	0.009418
8	1	10.6726251936894	-240455.3672545104	1972.7012099854253	797.3033121084584	172.76654597410862	436.4342047270233	1288.6107097826803	1.011394954011437	0.3122151596497782	1.0460254680084473	1591.4883828303502	0.3048	0.006734	0.0007702	2.725e-06	2.542e-06	0.0003296	0.0	0.00178	4.215e-05	0.000265	0.962	0.02806	0.0	0.0	0.0	0.0	28000.0	3.948e-10	5.361e-11	1.896e-13	1.488e-13	1.932e-11	4.482e-07	1.85e-09	6.472e-09	5.337e-09	1.195e-07	5.63e-08	0.0	0.0	1.0	0.0	0.0	154200.0	3.767e-08	6.075e-09	2.148e-11	1.419e-11	1.843e-09	0.000124	1.654e-07	2.47e-07	2.096e-07	0.001211	0.0006008	0.0	0.001017	0.1824	0.5087	0.3059	0.0	0.0	4295.0	4.743e-08	8.356e-09	2.955e-11	1.708e-11	2.406e-09	0.0001706	1.779e-07	5.35e-10	2.244e-10	0.1041	0.161	0.05327	0.6814	42.64	3.919e-09	3.402e-07	1.203e-09	4.137e-11	1.022e-07	0.007348	5.431e-09	2.713e-11	1.201e-05	5.53e-07	0.5959	0.3967	0.0	0.0	1.317	1.0	0.0
9	1	24.008977630769614	-972401.9304691924	1574.2672921122612	640.6285870700204	130.17548657610965	1470.3389075910009	1702.0166829921382	0.04447696531202294	0.9117683540887849	1.4684491242288513	424.1871846626598	0.005398	0.000342	3.706e-05	1.312e-07	1.291e-07	1.674e-05	0.0	4.87e-05	0.891	0.1078	0.0007497	0.0001003	0.0	0.0	0.0	0.0	54470000.0	1.534e-12	2.522e-13	8.92e-16	5.776e-16	7.505e-14	5.136e-09	6.141e-12	2.672e-06	2.437e-06	2.157e-08	1.072e-08	0.0	1.258e-05	0.5302	0.0	0.4698	324000.0	6.459e-08	1.084e-08	3.835e-11	2.432e-11	3.16e-09	0.0002192	2.313e-07	3.548e-06	3.126e-06	0.004824	0.0024	1.332e-10	1.609e-07	0.06686	0.05328	0.0	0.0	0.8724	1931.0	1.719e-08	2.931e-09	1.037e-11	6.187e-12	8.713e-10	6.157e-05	7.896e-08	2.355e-10	9.397e-11	0.2393	9.591e-05	0.0	0.7605	26.86	1.022e-09	8.574e-08	3.032e-10	1.079e-11	2.666e-08	0.001843	1.416e-09	7.074e-12	3.012e-06	1.387e-07	0.9982	0.0	0.0	0.0	1.317	1.0	0.0
10	1	39.38012134662551	-346708.74832960963	744.2175887130161	796.449332017197	20.944164356132458	423.12541556434894	1248.5880109944999	0.6114675199895694	1.2212169140991684	0.8304346816465005	975.5249435056445	2.624e-05	0.8154	0.06123	0.0002262	0.0003435	0.0447	0.0	0.01832	0.0598	0.0	7.802e-08	2.597e-08	0.0	0.0	0.0	0.0	5598000.0	2.757e-11	3.724e-12	1.317e-14	1.039e-14	1.349e-12	2.715e-08	1.227e-10	2.996e-08	2.396e-08	5.908e-08	2.773e-08	0.0	0.0	1.0	0.0	0.0	2134000.0	7.084e-09	1.137e-09	4.021e-12	2.667e-12	3.465e-10	2.32e-05	3.175e-08	7.756e-08	7.446e-08	0.0002701	0.0001339	3.783e-07	5.905e-07	0.007842	0.1662	0.8255	0.0	0.0	43.46	1.504e-07	2.288e-08	8.09e-11	5.406e-11	7.613e-09	0.0005145	1.243e-06	3.647e-09	1.187e-09	0.225	0.7745	0.0	0.0	64.33	1.906e-10	1.654e-08	5.85e-11	2.012e-12	4.973e-09	0.0003573	2.641e-10	1.319e-12	5.839e-07	2.689e-08	0.1891	0.8105	0.0	9.644e-06	1.317	1.0	0.0
11	4	27.222989618440277	598790.640702944	891.19420790558	1892.0747298235312	28.04051288772408	988.4541257559006	1864.7484220218428	-0.7669054586238424	1.4360679550948738	0.5962690452336101	479.6146378850177	0.005054	0.9924	9.76e-05	3.536e-07	0.0003818	6.425e-05	0.0	0.007101	1.503e-06	0.0	6.249e-10	2.064e-10	0.0	0.0	0.0	0.0	1129.0	0.0002594	1.752e-06	6.196e-09	9.634e-08	5.53e-07	0.03518	5.908e-05	2.816e-06	2.056e-06	0.2586	0.1276	1.517e-06	0.0	0.5783	0.0	0.0	3058000.0	5.241e-06	3.428e-11	1.212e-13	1.939e-09	9.861e-12	6.884e-07	3.245e-10	7.678e-08	7.076e-08	1.117e-05	5.563e-06	0.0003059	0.0	0.00404	0.01448	0.0	0.9812	0.0	11.19	0.7938	2.227e-07	7.873e-10	0.0002937	7.203e-08	0.004965	0.0001739	5.006e-08	6.889e-08	0.2008	0.0	0.0	0.0	1090.0	2.582e-05	4.851e-09	1.715e-11	2.857e-07	5.333e-06	0.01512	5.953e-10	1.874e-07	1.682e-07	7.326e-09	0.02029	0.01458	1.873e-08	0.95	1.317	1.0	0.0
12	1	13.689699842413443	184562.99534965423	1967.5069935716908	1890.5237079128394	929.9941777623985	1000.8439035063415	1344.1884978905773	-0.360861134658069	-0.4669557089318819	-0.7132023561538425	941.3930517694507	27.63	4.538e-05	6.969e-06	2.464e-08	1.71e-08	2.22e-06	0.1386	0.0002401	1.261e-06	2.814e-06	0.5768	0.2843	0.0	0.0	0.0	0.0	331.4	2.668e-05	4.143e-06	1.465e-08	1.005e-08	1.305e-06	0.08333	0.0001362	3.818e-07	7.264e-07	0.6135	0.303	0.0	0.0	0.0	0.0	0.0	336.9	1.239e-05	2.011e-06	7.113e-09	4.667e-09	6.064e-07	0.04104	5.287e-05	9.674e-07	6.264e-07	0.6408	0.3181	0.0	0.0	0.0	0.0	0.0	0.0	0.0	948.1	1.303e-07	2.294e-08	8.113e-11	4.693e-11	6.608e-09	0.0004685	4.899e-07	1.473e-09	6.174e-10	0.8933	0.004839	0.1014	1.959e-05	771.8	2.752e-10	2.708e-08	9.577e-11	2.91e-12	7.18e-09	0.0005433	3.814e-10	1.905e-12	8.881e-07	4.09e-08	0.9065	0.004835	0.0881	0.0	1.317	1.0	0.0
13	2	39.22308509814502	45285.06972138223	422.56713390283034	781.5057070333398	22.931369833161312	576.2908442201813	1423.4684325889325	1.0008815921971737	-0.01646605598755535	-0.014096231300681605	1750.528516974758	0.2928	0.9211	0.07011	0.0002571	0.0003685	7.829e-05	0.0	0.008043	2.738e-06	0.0	2.345e-10	7.793e-11	0.0	0.0	0.0	0.0	628900.0	1.442e-05	2.072e-06	7.327e-09	5.333e-09	1.9e-10	8.512e-06	2.665e-08	6.602e-09	6.057e-09	2.335e-05	1.127e-05	3.724e-06	0.0	0.9999	0.0	0.0	12.79	1.91e-05	3.163e-06	1.119e-08	7.043e-09	3.18e-08	0.002168	2.572e-06	9.792e-08	6.051e-08	0.03264	0.01621	0.0006885	0.0006133	0.204	0.3414	0.3766	0.02568	0.0	16.95	0.583	0.07947	0.000281	0.0002157	1.227e-08	0.0006467	0.0002489	6.045e-08	4.228e-08	0.3361	0.0	0.0	0.0	117.7	0.0002334	0.02117	7.487e-05	2.582e-06	4.819e-05	0.1281	8.667e-10	1.694e-06	3.932e-07	1.455e-08	0.3449	0.07169	0.0	0.4338	1.317	1.0	0.0
14	3	3.880190711737941	633762.1765093748	1215.7261801801885	490.06476417787576	252.88936993688296	1054.7557766702132	1288.2722172818428	-0.6709647582098801	0.6880791665249011	0.9089871815565282	214.49812034165	0.4083	0.002563	0.00754	2.667e-05	9.668e-07	0.0001254	0.0	0.001717	5.156e-05	7.523e-05	0.6933	0.2946	0.0	0.0	0.0	0.0	826.4	1.132e-05	4.498e-09	1.591e-11	4.265e-09	5.54e-07	0.03586	5.62e-05	4.164e-06	4.52e-06	0.2588	0.1279	0.0	0.01874	0.1764	0.0	0.3822	10370.0	2.396e-07	2.619e-06	9.262e-09	9.023e-11	1.172e-08	0.0007885	1.052e-06	1.177e-06	1.262e-06	0.02051	0.01018	0.0	0.03813	0.6615	0.0	0.0	0.0	0.2689	933.9	1.091e-06	4.061e-05	1.436e-07	3.927e-10	5.529e-08	0.00388	6.233e-06	1.872e-08	6.923e-09	0.2701	0.0002303	0.0	0.7257	7.625	1.101e-07	0.002005	7.09e-06	1.162e-09	2.872e-06	0.1823	1.525e-07	7.621e-10	0.0002978	1.372e-05	0.8154	0.0	0.0	0.0	1.317	1.0	0.0
15	2	7.263540659633163	568733.0948459995	453.67670330390683	1310.1788103706879	1235.6024321198204	1449.5914661235474	1869.6221950619542	-0.301608614381633	-1.0055172825876957	-0.3018039224430733	1244.242438261224	8306.0	2.676e-05	4.335e-06	1.533e-08	9.894e-09	2.427e-09	0.0001622	1.984e-07	2.144e-08	2.309e-08	0.0005513	0.0002733	0.01314	0.0	0.9858	0.0	3201.0	6.067e-07	9.746e-08	3.446e-10	2.364e-10	2.773e-07	0.01894	2.284e-05	4.16e-07	2.428e-07	0.2911	0.1446	0.001866	1.729e-05	0.0	0.5434	0.0	3669.0	0.0002432	4.181e-05	1.478e-07	8.999e-08	6.076e-10	4.243e-05	8.582e-08	1.633e-07	1.297e-07	0.01472	0.00733	0.3442	0.1063	0.0	0.0	0.0	0.5271	0.0	0.7751	0.4639	0.06398	0.0002263	0.0001717	8.299e-06	0.4697	0.002055	5.78e-06	1.386e-06	0.0	0.0	0.0	0.0	497.0	2.941e-06	0.0002882	1.019e-06	3.255e-08	6.36e-07	0.003851	1.563e-09	2.134e-08	3.536e-06	1.628e-07	3.725e-06	0.0	0.0	0.9958	1.317	1.0	0.0
16	1	8.858980406203138	586847.4457963412	1354.604417904768	1855.6736841853535	1540.480572908801	1590.4770661552386	1758.9983032529576	-0.9693460587429611	-0.08803317647521602	1.011763893458399	1615.1978038210057	1033.0	1.276e-05	2.111e-06	7.466e-09	4.802e-09	6.24e-07	0.0429	4.933e-05	1.447e-07	1.398e-07	0.6367	0.3165	0.003808	0.0	0.0	0.0	170.1	6.719e-06	1.117e-06	3.95e-09	2.529e-09	3.287e-07	0.02267	2.536e-05	3.346e-06	2.305e-06	0.6357	0.3161	0.02546	0.0	0.0	0.0	0.0	966.3	6.08e-06	1.026e-06	3.626e-09	2.289e-09	2.974e-07	0.02068	2.121e-05	1.953e-06	1.273e-06	0.6253	0.3112	0.04284	0.0	0.0	0.0	0.0	0.0	0.0	0.7665	0.0002797	4.666e-05	1.65e-07	1.007e-07	1.417e-05	0.9982	0.001461	4.335e-06	1.67e-06	0.0	0.0	0.0	0.0	237.5	2.101e-09	2.062e-07	7.293e-10	2.222e-11	5.482e-08	0.004147	2.912e-09	1.454e-11	6.778e-06	3.122e-07	0.1019	0.02886	0.0005899	0.8645	1.317	1.0	0.0
17	2	16.81885956467354	675190.888101645	879.9672021161338	630.0611881924165	487.31605310748415	1048.921469337696	1929.303563631764	1.4181464929532086	0.2852297828903989	-0.21043784091768258	1857.8851851050283	53.36	0.0008218	0.0001144	4.045e-07	3.063e-07	6.04e-06	0.1999	0.0006521	6.87e-05	6.627e-05	0.5408	0.2576	0.0	0.0	0.0	0.0	3829.0	0.0009353	0.0001478	5.225e-07	3.459e-07	7.62e-09	0.0004925	5.979e-07	0.0004623	0.0004177	0.002099	0.001038	0.001433	0.04562	0.9474	0.0	0.0	217000.0	1.868e-06	3.223e-07	1.14e-09	6.918e-10	3.053e-10	2.136e-05	2.214e-08	2.383e-06	2.211e-06	0.0006843	0.0003408	0.0002905	0.0008388	0.0002076	0.09215	0.0	0.1911	0.7143	48.32	0.06943	0.01067	3.774e-05	2.569e-05	4.324e-08	0.002977	2.658e-05	2.89e-08	1.402e-08	0.01126	0.0	0.0	0.9056	2.708	0.001554	0.1364	0.0004822	1.72e-05	0.0003215	0.8524	3.126e-08	1.128e-05	6.028e-05	2.753e-06	0.008795	0.0	0.0	0.0	1.317	1.0	0.0
18	3	5.2275506923947015	340664.7764371128	1248.8087232289113	819.6693589741715	387.3710082733736	647.0662412118301	1832.1026213393748	-1.2699333139162423	0.2730897348432273	0.16571966192071308	871.2286019888588	18.09	0.0002924	0.0001023	3.619e-07	1.102e-07	1.431e-05	0.1553	0.001054	3.631e-06	2.191e-05	0.5759	0.2673	0.0	0.0	0.0	0.0	32.64	3.29e-05	0.001004	3.549e-06	1.24e-08	1.61e-06	0.08187	0.0001919	5.454e-06	7.324e-06	0.617	0.2999	0.0	0.0	0.0	0.0	0.0	819.4	1.192e-06	7.334e-06	2.593e-08	4.486e-10	5.83e-08	0.004065	4.023e-06	2.683e-06	2.54e-06	0.05908	0.02941	0.02666	0.1827	0.09989	0.08086	0.1645	0.0	0.3528	493.5	1.164e-06	0.0001433	5.066e-07	4.189e-10	5.898e-08	0.004143	6.505e-06	1.98e-08	7.285e-09	0.1921	0.352	0.0	0.4517	22.58	3.158e-08	0.002055	7.268e-06	3.333e-10	8.237e-07	0.05941	4.375e-08	2.185e-10	9.709e-05	4.471e-06	0.7253	0.2132	0.0	0.0	1.317	1.0	0.0
19	2	4.038339267709145	672200.5172464626	449.9248689031527	258.770562992438	496.97906674214545	1282.253535539087	1829.4474331485944	0.7183310533199387	-1.398985903339745	-0.16010744354476403	86.74994500817643	1.4	0.001509	0.000211	7.462e-07	5.604e-07	3.484e-06	0.1208	0.0003799	0.001223	0.001049	0.4736	0.226	1.743e-06	0.1752	0.0	0.0	3609.0	4.606e-05	7.515e-06	2.657e-08	1.698e-08	9.711e-08	0.006528	8.481e-06	1.397e-06	9.232e-07	0.03506	0.01739	0.1022	0.27	0.0004682	0.1701	0.3981	3961.0	3.816e-05	6.52e-06	2.306e-08	1.419e-08	1.693e-07	0.0118	1.185e-05	1.442e-07	1.688e-07	0.3893	0.1938	0.07576	0.1725	0.05755	0.007645	0.0	0.02107	0.07056	14.42	0.00766	0.001054	3.729e-06	2.839e-06	1.433e-06	0.08056	0.0003257	9.958e-07	2.467e-07	0.0	0.0	0.0	0.9104	0.3767	0.0003079	0.02321	8.208e-05	3.403e-06	9.49e-05	0.9747	1.68e-06	2.233e-06	0.001515	6.976e-05	0.0	0.0	0.0	0.0	1.317	1.0	0.0
20	4	21.839994019846838	510310.0113769602	925.5099623978723	198.58623130021132	361.16073394675465	561.2118490918976	1670.6729763858145	1.1925244954280885	-0.05429699819440259	-0.8315596449091682	793.6865107742017	23.77	0.01544	2.716e-05	9.604e-08	5.726e-06	1.011e-05	0.03652	0.0004902	0.1688	0.1336	0.4216	0.1936	0.0	0.02987	0.0	0.0	9263000.0	1.723e-07	5.63e-12	1.991e-14	6.372e-11	1.944e-12	8.398e-08	2.865e-10	3.706e-06	3.217e-06	1.798e-07	8.666e-08	0.0	3.229e-06	0.0	0.0	1.0	7220000.0	6.138e-07	4.525e-11	1.6e-13	2.27e-10	1.322e-11	9.156e-07	7.526e-10	7.369e-07	6.653e-07	1.563e-05	7.774e-06	3.246e-05	0.0001901	0.03949	0.2339	0.3459	0.0	0.3804	487.2	0.01212	8.253e-09	2.918e-11	4.483e-06	2.654e-09	0.0001835	3.103e-06	1.499e-09	1.405e-09	0.03297	0.05146	0.0	0.9033	0.1253	0.02183	6.884e-06	2.435e-08	0.0002412	0.004503	0.9732	1.427e-07	0.0001583	2.799e-05	1.262e-06	0.0	0.0	0.0	0.0	1.317	1.0	0.0
21	2	38.60826462719373	45705.06615787372	473.8650099718952	1185.700859911192	1089.6427375363373	1252.661297650792	1835.0758707210175	-0.23214176513620632	-1.4789983585652031	-1.220597361164546	847.2621099016828	289.7	0.0005823	9.252e-05	3.272e-07	2.154e-07	1.079e-09	7.036e-05	8.678e-08	2.934e-08	3.113e-08	0.0004911	0.000243	0.006055	0.0	0.9925	0.0	3275.0	0.005035	0.000817	2.889e-06	1.862e-06	7.283e-08	0.004878	5.07e-06	6.786e-10	4.324e-08	0.05251	0.02604	0.08637	1.275e-06	0.0	0.8243	0.0	85210.0	0.0001169	2.003e-05	7.083e-08	4.327e-08	8.986e-09	0.0006267	7.098e-07	1.784e-07	1.988e-07	0.01669	0.008307	0.00532	0.002548	0.0	0.0	0.0	0.9664	0.0	12.02	0.876	0.1218	0.0004306	0.000324	1.964e-08	0.001148	0.0003337	9.047e-08	6.694e-08	0.0	0.0	0.0	0.0	342.7	0.0001106	0.01069	3.779e-05	1.225e-06	2.285e-05	0.06335	9.077e-10	8.03e-07	2.041e-07	7.635e-09	7.927e-06	0.0	0.0	0.9258	1.317	1.0	0.0
22	4	46.56740472550499	874586.8285001481	1018.6748195238639	493.3256015724934	303.5891582303176	1504.0473656126017	1730.411356281508	-0.406451923322265	1.035461906083785	-0.9320865274669953	33.147385514428535	4.758	0.4898	5.379e-06	1.902e-08	0.0001811	2.066e-06	1.821e-05	0.0005286	0.2618	0.1817	0.04568	0.02032	0.0	0.0	0.0	0.0	521500000.0	5.888e-08	4.507e-13	1.594e-15	2.179e-11	1.337e-13	9.169e-09	2.343e-11	2.638e-06	2.405e-06	1.778e-07	8.837e-08	2.396e-07	2.244e-06	0.2212	0.0	0.7788	12020000.0	8.966e-08	2.639e-10	9.332e-13	3.31e-11	7.671e-11	5.328e-06	5.283e-09	2.098e-06	1.898e-06	0.0001205	5.995e-05	1.16e-06	6.568e-06	0.3008	0.0	0.0	0.0	0.699	385.0	0.07559	2.528e-09	8.939e-12	2.797e-05	8.013e-10	5.576e-05	1.104e-05	1.194e-09	4.302e-09	0.1476	0.0	0.0	0.7767	14.29	0.00184	3.298e-08	1.166e-10	2.035e-05	0.0003798	0.8895	2.696e-09	1.335e-05	1.65e-06	5.124e-08	0.1082	0.0	0.0	0.0	1.317	1.0	0.0
23	1	43.155889580693874	-105050.48437359708	266.19984151077233	1225.532900914239	382.7925841813803	1636.2473206717518	1671.9856897544184	-1.410850555850383	0.3682420250919045	-0.18417403384889397	442.00471019838534	19.46	0.0002605	3.459e-05	1.223e-07	9.824e-08	1.275e-05	0.1222	0.0009044	5.104e-06	2.693e-05	0.5984	0.2772	0.0008843	0.0	0.0	0.0	8896000.0	1.912e-11	3.192e-12	1.129e-14	7.196e-15	9.351e-13	6.466e-08	7.061e-11	1.117e-07	1.02e-07	2.041e-06	1.015e-06	0.0001414	2.467e-05	0.002816	0.997	0.0	158800.0	1.868e-08	3.128e-09	1.106e-11	7.031e-12	9.137e-10	6.328e-05	6.784e-08	1.042e-07	1.033e-07	0.001362	0.0006774	0.0001184	2.433e-05	0.005963	0.0	0.0	0.9918	0.0	8.157e-06	0.2852	0.0363	0.0001284	0.0001022	0.01441	0.0009462	0.6607	0.001834	0.0003394	0.0	0.0	0.0	0.0	527.4	2.793e-11	2.585e-09	9.142e-12	2.95e-13	7.287e-10	5.436e-05	3.871e-11	1.933e-13	8.884e-08	4.092e-09	0.02387	0.0	0.0	0.9761	1.317	1.0	0.0
24	2	4.118009288655359	791611.5392268102	1377.5963770976798	1679.3312854700835	625.4036092618521	1305.0797263899365	1610.202115217622	1.148349979148184	1.0015871473809015	-1.3352746977456995	960.1126593227234	35.29	0.0002223	3.22e-05	1.139e-07	8.307e-08	3.188e-06	0.1569	0.0003803	1.57e-07	3.749e-06	0.5672	0.2752	0.0	0.0	0.0	0.0	800.5	5.716e-06	9.175e-07	3.244e-09	2.177e-09	7.692e-07	0.05184	6.83e-05	6.576e-07	4.428e-07	0.6294	0.3123	0.0	0.0	0.006419	0.0	0.0	55.15	0.006039	0.001017	3.596e-06	2.232e-06	9.057e-07	0.06253	6.23e-05	5.212e-07	4.837e-07	0.00549	0.00273	0.3661	0.0	0.556	0.0	0.0	0.0	0.0	8.023	0.03671	0.006034	2.134e-05	1.36e-05	6.358e-06	0.4479	0.0007175	1.978e-06	7.841e-07	0.5085	2.592e-06	0.0	0.0	63.37	9.175e-06	0.0009312	3.293e-06	1.015e-07	2.761e-06	0.07116	4.65e-08	6.658e-08	0.0001077	4.958e-06	0.1511	0.008931	5.787e-05	0.7676	1.317	1.0	0.0
25	4	29.661474118965234	-324216.3985159192	1642.6779040219662	597.3033705552778	37.70609515099507	250.33082623019573	1821.1185626901351	1.1233379441744007	0.8317751761557877	-1.2488156598595306	784.5863525831329	0.06956	0.9931	0.0004091	1.466e-06	0.0003736	0.0002463	0.0	0.005794	0.0001223	0.0	1.822e-08	5.931e-09	0.0	0.0	0.0	0.0	196.7	6.195e-06	1.561e-06	5.52e-09	2.357e-09	6.213e-07	0.0	8.393e-06	2.922e-07	8.845e-07	0.008273	0.003504	0.0	0.0	0.9882	0.0	0.0	18640000.0	9.52e-07	8.071e-12	2.854e-14	3.522e-10	2.329e-12	1.623e-07	8.235e-11	3.294e-06	3.013e-06	2.889e-06	1.438e-06	4.047e-07	0.0001389	0.02644	5.123e-05	1.914e-06	0.0	0.9734	2004.0	0.008853	1.93e-09	6.826e-12	3.276e-06	5.703e-10	4.033e-05	8.763e-07	2.656e-10	5.046e-10	0.05265	4.123e-05	0.0	0.9384	11.32	0.001106	1.242e-07	4.393e-10	1.223e-05	0.0002283	0.575	4.003e-09	8.024e-06	4.683e-06	1.997e-07	0.4234	0.0001935	0.0	0.0	1.317	1.0	0.0
26	4	5.487674626361318	-961326.8905742429	538.4908861533921	695.3486977024487	854.397596071321	874.5722965899948	1339.3675688636256	-0.5733346925693094	1.2873895180755865	-0.8043342138788618	1428.7135369704376	7.387	0.002686	5.697e-06	2.015e-08	9.914e-07	1.839e-06	0.1112	0.0001992	9.849e-05	8.225e-05	0.296	0.1455	0.3531	0.09111	0.0	0.0	95.94	0.003507	8.404e-07	2.972e-09	1.299e-06	2.703e-07	0.0165	3.337e-05	0.000169	0.0001583	0.3015	0.1484	0.3971	0.1326	0.0	0.0	0.0	1186.0	1.251e-05	2.258e-06	7.985e-09	4.541e-09	6.811e-07	0.04607	5.892e-05	9.85e-07	5.843e-07	0.5418	0.2689	0.04404	0.05811	0.0	0.0	0.0	0.04106	0.0	1.052	0.2251	3.523e-05	1.246e-07	8.333e-05	1.236e-05	0.772	0.002756	7.512e-06	2.126e-06	0.0	0.0	0.0	0.0	5.748	8.473e-05	8.324e-06	2.943e-08	9.375e-07	2.003e-05	0.2248	1.359e-07	6.149e-07	0.0002936	1.352e-05	0.0	0.0	0.0	0.7748	1.317	1.0	0.0
27	1	19.549425302740854	414913.4890137776	194.33971610662067	993.2490825069856	89.36874885304823	437.01449393226994	1076.7344185242944	-0.9065439756237569	-1.5594937911600752	0.8528561872573484	1565.7545510582959	1.792e-07	0.815	0.08185	0.0002901	0.0003081	0.03993	0.0	0.0534	0.007265	0.0	0.001649	0.0003497	0.0	0.0	0.0	0.0	3923000.0	5.985e-11	8.131e-12	2.875e-14	2.257e-14	2.929e-12	6.834e-08	2.81e-10	1.652e-09	1.316e-09	1.048e-07	4.938e-08	2.728e-06	0.0	4.728e-08	1.0	0.0	643500.0	2.136e-08	3.353e-09	1.186e-11	8.044e-12	1.045e-09	6.795e-05	1.048e-07	1.373e-08	1.029e-08	0.0005934	0.0002935	1.058e-05	2.081e-09	6.461e-09	0.0001139	0.7507	0.2482	0.0	2.568e-05	0.3425	0.04103	0.0001451	0.0001226	0.0173	0.0	0.3363	0.000788	0.0001059	0.2618	0.0	0.0	0.0	439.4	1.366e-10	1.225e-08	4.333e-11	1.442e-12	3.563e-09	0.0002621	1.892e-10	9.452e-13	4.284e-07	1.973e-08	3.846e-05	0.3631	0.0	0.6366	1.317	1.0	0.0
28	1	38.885935047092005	998835.4969732733	1314.0444581773515	892.8505348629953	30.106201903373734	650.3503831881935	1076.4781594584108	0.7294038361814326	-0.858240668491094	0.06493361132882147	548.0442380196919	0.0002464	0.5967	0.04708	0.00017	0.0002333	0.0303	0.0	0.01172	0.3138	0.0	5.335e-07	1.758e-07	0.0	0.0	0.0	0.0	113200000.0	4.951e-11	7.185e-12	2.541e-14	1.866e-14	2.422e-12	1.237e-07	2.888e-10	1.126e-08	9.816e-09	4.125e-07	2.006e-07	0.0	0.0	1.0	0.0	0.0	193000000.0	1.524e-11	2.393e-12	8.461e-15	5.739e-15	7.455e-13	4.848e-08	7.477e-11	4.072e-08	3.653e-08	4.457e-07	2.204e-07	0.0	3.302e-08	0.3145	0.6855	0.0	0.0	0.0	523.2	2.072e-08	3.442e-09	1.217e-11	7.457e-12	1.05e-09	7.389e-05	1.11e-07	3.291e-10	1.259e-10	0.3174	0.2493	0.01405	0.4192	60.0	2.309e-10	2.039e-08	7.211e-11	2.438e-12	6.024e-09	0.0004388	3.2e-10	1.598e-12	7.171e-07	3.303e-08	0.858	0.1415	0.0	0.0	1.317	1.0	0.0
29	1	21.548026033049847	-741368.2157607074	1611.2247176111264	407.3718674029935	443.8245174510461	671.3236091998044	1728.0794482302572	-0.4046813531444726	1.3072989709627958	1.3408602401121117	146.3388611612695	0.5406	0.0001316	1.792e-05	6.339e-08	4.962e-08	6.44e-06	0.1599	0.0006319	0.1736	0.1414	0.3562	0.1681	0.0	1.867e-05	0.0	0.0	87.65	3.663e-05	5.343e-06	1.889e-08	1.38e-08	1.792e-06	0.09406	0.0002133	0.07719	0.06754	0.3008	0.1465	0.0	0.3137	0.0	0.0	0.0	22250000.0	6.264e-10	1.054e-10	3.727e-13	2.358e-13	3.064e-11	2.128e-06	2.217e-09	1.27e-06	1.149e-06	5.145e-05	2.56e-05	1.246e-08	3.815e-05	0.004908	0.09429	0.4184	0.0	0.4823	2783.0	1.509e-08	2.583e-09	9.135e-12	5.435e-12	7.653e-10	5.41e-05	6.796e-08	2.028e-10	8.137e-11	0.02288	0.1754	0.0	0.8017	0.03493	6.684e-07	5.205e-05	1.841e-07	7.051e-09	1.743e-05	0.9982	9.257e-07	4.625e-09	0.00163	7.509e-05	0.0	0.0	0.0	0.0	1.317	1.0	0.0
30	4	19.599372440977117	246350.64430338657	833.7519447900395	724.0216092947068	600.0651886853541	1040.9408586745349	1514.4202821896683	0.13998810329980937	-0.10019630965343973	1.5136810471515942	27.529562738877367	6.95	0.4625	3.457e-06	1.222e-08	0.0001711	1.181e-06	0.05559	0.0002627	0.003249	0.002778	0.3204	0.1551	0.0	0.0	0.0	0.0	4.005	0.01087	2.681e-06	9.48e-09	4.026e-06	8.396e-07	0.05416	9.675e-05	0.0003344	0.0002895	0.4928	0.2436	0.02337	0.1745	0.0	0.0	0.0	89210.0	1.7e-06	3.441e-08	1.217e-10	6.252e-10	1.019e-08	0.0006998	7.991e-07	4.622e-08	3.584e-08	0.01184	0.005883	0.0001598	0.0004388	0.9722	0.0	0.0	0.0	0.008753	22.01	0.1978	2.044e-07	7.226e-10	7.318e-05	6.68e-08	0.004576	6.351e-05	3.786e-08	2.833e-08	0.7167	0.0	0.0	0.08083	5.171	0.001243	7.552e-07	2.671e-09	1.375e-05	0.0002569	0.6887	1.551e-08	9.02e-06	2.707e-05	1.228e-06	0.3097	0.0	0.0	0.0	1.317	1.0	0.0
31	3	12.358611177593584	711650.2756077361	948.6313292628159	290.2898338459738	59.03205249674276	1946.4601290107905	1963.6034621543556	0.6210467452849038	1.550752910900171	1.047667189479038	1578.6244196655182	5.519e-06	0.03288	0.9003	0.003201	1.247e-05	0.001617	0.0	0.001028	0.06099	0.0	2.922e-06	8.979e-07	0.0	0.0	0.0	0.0	732300.0	3.09e-10	8.384e-07	2.965e-09	1.163e-13	1.512e-11	1.058e-06	9.924e-10	1.828e-06	1.676e-06	0.0001014	5.052e-05	0.001399	0.005949	7.461e-07	0.1031	0.8894	4832.0	4.9e-06	1.239e-06	4.382e-09	1.844e-09	2.397e-07	0.01678	1.562e-05	1.019e-07	2.415e-07	0.4846	0.2414	0.007223	0.03026	2.756e-07	0.0	0.0	0.004023	0.2157	406.0	2.006e-07	0.0007395	2.615e-06	7.213e-11	1.016e-08	0.0007036	1.391e-06	4.724e-09	1.447e-09	0.0001554	0.0	0.0	0.9984	0.1472	3.645e-07	0.6242	0.002207	3.843e-09	9.501e-06	0.3644	5.046e-07	2.522e-09	0.0005954	2.742e-05	0.008555	0.0	0.0	0.0	1.317	1.0	0.0
32	3	40.55174456523461	200537.61622127402	23.667928483234718	1668.551152258019	182.767481296749	707.9177630423015	1440.0685547765036	1.0747337672846982	-0.18013674838331895	-0.9081576924381327	1675.758048735119	22470000.0	1.091e-10	6.078e-09	2.15e-11	4.117e-14	5.339e-12	0.0	3.279e-11	9.434e-12	1.219e-11	2.105e-08	2.544e-09	6.728e-09	0.0	1.0	0.0	11200000.0	2.531e-11	7.971e-08	2.819e-10	9.536e-15	1.238e-12	6.764e-08	1.464e-10	4.584e-10	4.08e-10	2.225e-07	1.086e-07	3.692e-06	0.0	0.2778	0.7222	0.0	9560000.0	4.248e-10	2.11e-07	7.459e-10	1.599e-13	2.078e-11	1.419e-06	1.726e-09	3.179e-09	3.087e-09	2.058e-05	1.023e-05	4.307e-05	0.0	0.1779	0.4462	0.09397	0.2818	0.0	0.08002	5.143e-06	0.9964	0.003564	1.772e-09	2.548e-07	0.0	1.05e-07	5.101e-06	0.0	0.0	0.0	0.0	0.0	2130.0	1.021e-11	0.002669	9.438e-06	1.079e-13	2.663e-10	2.009e-05	1.414e-11	7.064e-14	3.284e-08	1.512e-09	0.1368	0.1461	0.004144	0.7103	1.317	1.0	0.0
33	3	40.12130648744424	-50890.7987884155	488.2770441794363	1073.3560197880997	45.89670135737008	308.59111016468296	644.2740802297774	0.9846846517114276	-0.27135300274237184	-0.41321507043053773	1268.745176281658	0.04401	0.01593	0.9794	0.003495	6.074e-06	0.0007877	0.0	0.0003658	1.884e-06	0.0	2.141e-07	6.85e-08	0.0	0.0	0.0	0.0	1656000.0	5.255e-10	4.206e-07	1.488e-09	1.982e-13	2.571e-11	8.894e-11	6.48e-10	2.267e-10	2.324e-10	5.976e-07	2.668e-07	0.0	0.0	1.0	0.0	0.0	369100.0	4.544e-09	2.301e-07	8.137e-10	1.713e-12	2.223e-10	1.126e-05	2.651e-08	6.982e-10	7.067e-10	3.774e-05	1.834e-05	4.251e-07	0.0	0.1459	0.5814	0.2727	0.0	0.0	14.01	3.161e-07	0.1162	0.000411	1.135e-10	1.599e-08	0.0009527	3.429e-06	3.437e-08	2.686e-09	0.6255	0.2569	0.0	0.0	520.8	2.923e-11	0.006874	2.431e-05	3.086e-13	7.625e-10	5.643e-05	4.05e-11	2.023e-13	9.222e-08	4.247e-09	0.2003	0.4081	0.008444	0.3762	1.317	1.0	0.0
34	4	11.530914390915662	-747430.6750643533	1991.8360591115893	1312.683006839751	794.1864548263648	1092.1646361847595	1706.8127611131408	0.9535880795320364	1.3609614521408626	1.4191201207752187	26.47595058855863	8.236	0.002574	5.808e-06	2.054e-08	9.545e-07	1.897e-06	0.1109	0.0002236	1.174e-05	1.476e-05	0.5946	0.2917	0.0	0.0	0.0	0.0	372.3	0.002391	3.01e-06	1.064e-08	8.86e-07	9.358e-07	0.06106	9.792e-05	2.49e-05	2.677e-05	0.6265	0.3099	0.0	0.0	0.0	0.0	0.0	1828.0	0.0007924	9.352e-07	3.307e-09	2.928e-07	2.724e-07	0.0189	1.851e-05	4.655e-05	3.981e-05	0.3413	0.1698	0.0	0.06901	0.4001	0.0	0.0	0.0	0.0	1299.0	0.002436	2.389e-08	8.449e-11	9.013e-07	6.87e-09	0.0004871	1.017e-06	1.659e-09	9.82e-10	0.01306	0.2578	0.01925	0.7069	11.27	0.0003273	1.815e-06	6.417e-09	3.622e-06	6.809e-05	0.2259	2.997e-08	2.375e-06	6.206e-05	2.853e-06	0.1794	0.5942	0.0	0.0	1.317	1.0	0.0
35	4	43.48093308817816	600047.262239791	757.0344376032449	440.3864603008886	875.5671212767292	1037.643431764659	1625.6176416777146	-1.345373672661135	1.3876032885609315	-1.507163540128713	86.3536392024729	13.18	0.002806	4.341e-06	1.535e-08	1.036e-06	1.396e-06	0.08527	0.0001488	0.08393	0.07573	0.4863	0.2393	0.0001402	0.02638	0.0	0.0	13300000.0	1.534e-07	1.436e-10	5.08e-13	5.667e-11	4.501e-11	2.901e-06	4.326e-09	5.231e-06	4.718e-06	2.287e-05	1.13e-05	2.182e-07	2.701e-06	0.0	0.0	0.9999	200500000.0	1.733e-07	1.356e-12	4.794e-15	6.413e-11	3.976e-13	2.747e-08	6.521e-11	2.35e-06	2.144e-06	6.376e-07	3.171e-07	3.003e-06	1.004e-05	0.0	0.0	0.0	0.1779	0.822	93.9	0.2103	8.836e-09	3.124e-11	7.781e-05	2.932e-09	0.0001986	4.567e-05	4.765e-09	1.428e-08	0.0	0.0	0.0	0.7893	9.53	0.002188	5.065e-08	1.791e-10	2.42e-05	0.0004517	0.9973	2.872e-09	1.588e-05	2.248e-06	7.577e-08	0.0	0.0	0.0	0.0	1.317	1.0	0.0
36	1	7.717078901782666	-51420.68336202169	601.4771192894887	35.969432949201305	689.7034749149605	1427.2153455734447	1807.872898099911	-1.1920716946480785	-0.4659290402103189	-0.1656069640811697	1225.7486470513588	1841.0	3.711e-06	5.438e-07	1.923e-09	1.399e-09	1.816e-07	0.009734	2.155e-05	1.237e-06	1.326e-06	0.03224	0.01572	1.425e-06	0.02099	0.0	0.9213	86100.0	4.009e-08	6.562e-09	2.32e-11	1.509e-11	1.961e-09	0.0001337	1.64e-07	1.208e-06	1.016e-06	0.003164	0.001571	0.004115	0.01495	0.006043	0.2134	0.7566	19840.0	1.395e-07	2.362e-08	8.353e-11	5.251e-11	6.824e-09	0.0004754	4.761e-07	7.819e-07	7.491e-07	0.008956	0.004458	0.008788	0.02508	0.001201	0.0	0.0	0.2491	0.7019	134.2	1.061e-06	1.559e-07	5.512e-10	3.812e-10	5.369e-08	0.003479	1.011e-05	2.989e-08	8.95e-09	0.0	0.0	0.0	0.9965	1.988e-06	0.01336	0.6264	0.002226	0.0001373	0.3397	0.0	0.01804	9.09e-05	0.0	0.0	0.0	0.0	0.0	0.0	1.34	0.9825	0.01746
37	2	6.222998445965991	812909.4439073419	1574.5424728253208	163.44335799621118	437.58961245018645	1417.1240134772877	1623.6564436235876	0.06431350656194001	0.3984001362328242	0.7010822551600451	876.6510436599899	428100.0	5.191e-07	7.118e-08	2.517e-10	1.921e-10	2.745e-12	6.441e-08	2.792e-10	4.018e-06	3.394e-06	2.147e-06	1.012e-06	0.0	5.624e-05	0.0	0.9999	52710.0	1.191e-06	1.976e-07	6.988e-10	4.376e-10	9.526e-09	0.000649	7.855e-07	8.957e-08	5.709e-08	0.008123	0.004034	0.0	0.005762	0.96	0.0	0.02142	28020.0	1.84e-06	3.086e-07	1.091e-09	6.857e-10	1.587e-08	0.001097	1.215e-06	4.854e-07	5.462e-07	0.02344	0.01166	0.0	0.002057	0.5535	0.0	0.0	0.0	0.4083	3266.0	0.0002307	3.868e-05	1.368e-07	8.541e-08	7.666e-09	0.0005418	8.735e-07	2.217e-09	9.397e-10	0.2457	0.0002487	0.0	0.7532	0.01351	0.01404	0.9704	0.003432	0.000155	0.003145	0.008691	1.357e-05	0.0001018	1.127e-05	5.193e-07	0.0	0.0	0.0	0.0	1.318	0.9995	0.0005273
38	1	32.57329485562511	-160826.00878214114	350.3527027009578	166.6185763840897	481.8881712573713	503.19105626565664	1970.6537165670954	-0.34786526439399745	-0.646898805983471	-0.08468739009191517	719.7049761802174	8626000.0	6.207e-11	8.573e-12	3.032e-14	2.34e-14	3.037e-12	9.769e-08	3.266e-10	3.6e-06	3.07e-06	2.186e-07	1.041e-07	9.434e-08	2.951e-06	0.0	1.0	1605000.0	4.253e-09	5.917e-10	2.093e-12	1.603e-12	2.081e-10	7.414e-06	2.314e-08	3.41e-06	2.869e-06	2.029e-05	9.696e-06	1.246e-07	2.267e-06	0.0	0.0	1.0	12070000.0	3.096e-11	5.306e-12	1.876e-14	1.165e-14	1.514e-12	1.061e-07	9.839e-11	7.243e-07	6.589e-07	2.315e-06	1.153e-06	6.684e-05	0.0001444	0.2921	0.08307	0.005641	0.1991	0.4199	9.176	5.569e-07	7.456e-08	2.637e-10	1.998e-10	2.816e-08	0.0007665	7.308e-06	2.951e-08	4.997e-09	0.0	0.0	0.0	0.9992	4.716e-06	0.001043	0.06898	0.000244	1.098e-05	0.02714	0.8995	0.001442	7.209e-06	0.001585	7.301e-05	0.0	0.0	0.0	0.0	1.317	1.0	3.177e-06
39	3	24.569737229515987	546872.3830259575	1004.9391968257469	759.8515484314917	385.40132608790674	857.0591400223344	1601.9597409585765	-1.2832476371742465	-1.0779405542264429	-0.735944629704166	214.45550653622743	4.803	0.0002579	0.00181	6.401e-06	9.725e-08	1.262e-05	0.1301	0.0009154	0.0001851	0.000148	0.592	0.2745	0.0	0.0	0.0	0.0	9039.0	7.842e-07	3.503e-05	1.239e-07	2.954e-10	3.837e-08	0.002324	4.295e-06	3.157e-05	2.744e-05	0.01358	0.006679	0.0	2.076e-05	0.9773	0.0	0.0	3450000.0	1.099e-09	3.997e-07	1.413e-09	4.139e-13	5.378e-11	3.712e-06	4.128e-09	7.941e-06	7.25e-06	6.11e-05	3.038e-05	6.014e-05	0.0002565	0.005426	0.1122	0.0	0.0	0.8819	50.8	4.257e-07	0.02474	8.75e-05	1.531e-10	2.156e-08	0.0015	2.826e-06	1.463e-08	3.068e-09	0.09099	0.01688	0.0	0.8658	2.279	1.328e-08	0.417	0.001474	1.402e-10	3.464e-07	0.02473	1.84e-08	9.192e-11	4.04e-05	1.861e-06	0.5568	0.0	0.0	0.0	1.317	1.0	0.0
40	4	36.89180308179727	91650.91110024648	1512.1188778774015	805.5730639957486	188.5698372142535	484.97789987536675	1443.5525253106107	1.351646797950039	-0.20691392648056772	-0.8112837351887963	138.0849915337633	1.061	0.1935	0.0003362	1.19e-06	7.177e-05	0.0001414	0.0	0.0006157	0.0001804	0.0002916	0.6441	0.1607	0.0	0.0	0.0	0.0	23620.0	0.0002061	7.792e-13	2.756e-15	7.624e-08	2.757e-13	9.015e-09	6.954e-08	2.635e-07	2.191e-07	2.89e-07	1.376e-07	0.0	0.0	0.9998	0.0	0.0	935100.0	1.205e-05	2.799e-10	9.899e-13	4.459e-09	8.352e-11	5.703e-06	4.62e-09	9.012e-08	8.436e-08	7.83e-05	3.889e-05	0.0	0.000315	0.009073	0.1578	0.8327	0.0	0.0	1279.0	0.01999	1.799e-09	6.363e-12	7.395e-06	5.38e-10	3.799e-05	1.903e-06	3.59e-10	9.869e-10	0.02919	0.313	8.582e-07	0.6378	38.55	0.0006464	3.181e-08	1.125e-10	7.153e-06	0.0001335	0.3566	2.645e-09	4.691e-06	1.338e-06	5.17e-08	0.1265	0.516	0.0	0.0	1.317	1.0	0.0
41	4	19.93260333222451	-246942.3956534469	1448.8080445114895	1240.6551401410597	48.002213164917926	349.16332201520356	513.9325192470105	-0.41012918501346274	-0.17652376994645125	0.5689675051351828	314.7919713253581	0.3646	0.9948	4.18e-05	1.49e-07	0.0003703	2.358e-05	0.0	0.004741	3.508e-06	0.0	6.535e-09	2.079e-09	0.0	0.0	0.0	0.0	4614000.0	8.47e-08	8.487e-11	3.002e-13	3.139e-11	3.18e-11	2.291e-08	1.153e-09	4.018e-11	7.554e-11	1.231e-06	5.623e-07	0.0	0.0	1.0	0.0	0.0	116300.0	1.626e-07	2.807e-09	9.927e-12	6.055e-11	9.838e-10	3.662e-05	1.104e-07	3.134e-10	1.6e-09	0.0001003	4.801e-05	0.0	0.0	0.8283	0.1715	0.0	0.0	0.0	995.2	0.007231	7.592e-09	2.685e-11	2.676e-06	2.284e-09	0.0001611	1.302e-06	8.695e-10	8.27e-10	0.8384	0.1227	0.001734	0.02983	601.5	1.746e-05	1.076e-08	3.804e-11	1.933e-07	3.61e-06	0.01023	3.06e-10	1.268e-07	3.753e-07	1.701e-08	0.8694	0.1188	0.001527	0.0	1.317	1.0	0.0
42	4	38.103612517095534	610036.1975453624	382.88192503226435	1869.532702000982	314.5596553296749	1249.1559760027508	1397.152119421778	0.8986525670185235	0.6866563781862589	0.005802548560697174	1226.9813229239157	5.446	0.3117	4.385e-05	1.551e-07	0.0001154	1.674e-05	0.0001204	0.0002244	0.0003095	0.000278	0.4745	0.2127	0.0	0.0	0.0	0.0	66330000.0	2.152e-07	1.5e-11	5.304e-14	7.961e-11	4.571e-12	3.06e-07	3.319e-10	3.203e-09	2.995e-09	3.316e-06	1.644e-06	4.502e-06	0.0	0.3693	0.6306	0.0	15880000.0	2.446e-07	4.553e-11	1.61e-13	9.056e-11	1.365e-11	9.284e-07	1.356e-09	5.953e-09	5.186e-09	1.41e-05	7.004e-06	6.233e-06	0.0	0.333	0.0	0.0	0.667	0.0	8.614	0.9981	6.343e-08	2.243e-10	0.0003692	2.358e-08	0.001044	0.0004643	2.817e-08	6.25e-08	4.639e-05	0.0	0.0	0.0	2582.0	2.114e-05	1.033e-09	3.655e-12	2.34e-07	4.367e-06	0.01232	4.353e-10	1.535e-07	4.138e-08	1.563e-09	0.1641	0.08799	0.00971	0.7258	1.317	1.0	0.0
43	3	41.48754121584824	848164.630436013	993.0888615656504	454.30659428428913	519.4852537766353	1439.9827751448595	1671.8269506672011	-0.5180959784945864	1.3198809985279665	1.4198952887264187	1833.4207389310516	3.754	3.101e-05	0.02298	8.125e-05	1.169e-08	1.517e-06	0.05767	0.000172	0.3833	0.3225	0.1442	0.06908	0.0	5.526e-05	0.0	0.0	186000000.0	3.582e-11	1.585e-08	5.605e-11	1.349e-14	1.752e-12	1.196e-07	1.456e-10	3.225e-06	2.933e-06	1.747e-06	8.68e-07	4.237e-07	4.525e-06	0.009936	0.0	0.99	121900000.0	1.051e-10	1.857e-08	6.568e-11	3.956e-14	5.141e-12	3.561e-07	3.817e-10	2.835e-06	2.591e-06	7.831e-06	3.896e-06	1.18e-06	7.06e-06	0.009308	0.0	0.0	0.0	0.9907	314.9	2.384e-08	0.01125	3.977e-05	8.577e-12	1.208e-09	8.392e-05	1.597e-07	1.941e-09	1.844e-10	0.01756	0.0	0.0	0.9711	1.637	4.212e-09	0.9898	0.0035	4.444e-11	1.098e-07	0.006724	5.835e-09	2.915e-11	1.098e-05	5.058e-07	0.0	0.0	0.0	0.0	1.317	1.0	0.0
44	4	5.234290892635806	752189.0625757386	1107.7436108928937	1976.9560872059828	826.8583731009875	1067.7567277819767	1260.005355827561	0.20327241866022927	1.343196775450581	-0.07274805137836071	1501.6523495099534	1.994	0.007828	1.847e-06	6.533e-09	2.898e-06	5.995e-07	0.03575	7.513e-05	2.434e-06	3.075e-06	0.6413	0.315	0.0	0.0	0.0	0.0	555.9	1.225e-05	4.052e-06	1.433e-08	4.413e-09	1.264e-06	0.08205	0.0001263	4.203e-07	5.65e-07	0.6141	0.3037	0.0	0.0	0.0	0.0	0.0	91.73	0.004649	4.606e-07	1.629e-09	1.721e-06	1.402e-07	0.009398	1.579e-05	2.501e-06	1.913e-06	0.6345	0.3146	0.03682	0.0	0.0	0.0	0.0	0.0	0.0	3.653	0.1082	2.294e-05	8.111e-08	4.006e-05	7.178e-06	0.5018	0.001026	2.62e-06	1.017e-06	0.3889	3.204e-06	0.0	0.0	1407.0	7.684e-07	1.063e-07	3.758e-10	8.503e-09	1.865e-07	0.002567	1.505e-09	5.576e-09	3.467e-06	1.596e-07	0.04364	0.06298	0.317	0.5739	1.317	1.0	0.0
45	4	22.832989477615218	802628.9833851084	1976.1839406581594	92.7798811850979	348.9855137135257	646.3780673652047	1691.3823585764226	-1.069873578137674	-0.4693466042747729	-1.453604490492143	242.45758005303952	21470000.0	2.447e-08	2.065e-11	7.303e-14	9.037e-12	7.737e-12	5.295e-09	4.701e-10	2.817e-06	2.165e-06	2.695e-07	1.231e-07	0.0	1.813e-07	0.0	1.0	707700.0	8.633e-08	3.843e-10	1.359e-12	3.184e-11	1.297e-10	6.588e-06	1.534e-08	2.057e-06	1.738e-06	2.215e-05	1.077e-05	0.0	3.945e-06	0.0	0.0	1.0	24590000.0	3.531e-07	2.647e-11	9.361e-14	1.307e-10	7.72e-12	5.352e-07	7.354e-10	1.3e-06	1.174e-06	1.38e-05	6.864e-06	0.0	9.773e-05	0.1488	0.01897	0.0005202	0.0	0.8316	5571.0	0.002212	1.41e-09	4.986e-12	8.184e-07	4.058e-10	2.877e-05	2.298e-07	1.273e-10	1.609e-10	0.08767	0.005655	0.005682	0.8988	0.00198	0.8172	0.0001861	6.584e-07	0.008986	0.1678	1.308e-06	4.367e-06	0.005911	4.051e-10	1.866e-11	0.0	0.0	0.0	0.0	1.43	0.9207	0.07927
46	2	45.20350633039115	552660.5754687046	495.30293621082734	655.3973702872278	296.0515049603592	678.0544581486716	1449.8084395575004	-1.5650553879334548	0.23059589186408358	-1.2878969337708768	1139.6029574728905	7.355	4.017e-05	5.325e-06	1.883e-08	1.368e-08	3.052e-05	3.326e-05	0.0006961	4.334e-05	9.225e-05	0.6926	0.3065	0.0	0.0	0.0	0.0	11.79	0.1298	0.01915	6.771e-05	4.8e-05	1.894e-06	0.1002	0.000228	0.05658	0.04947	0.3503	0.1707	0.04617	1.08e-07	0.07729	0.0	0.0	180100000.0	1.895e-07	3.141e-08	1.111e-10	7.011e-11	2.39e-14	1.633e-09	2.252e-11	3.511e-06	3.202e-06	4.389e-08	2.181e-08	3.453e-06	5.044e-06	5.065e-08	0.0001163	0.01367	0.4544	0.5318	17.1	0.8754	0.1226	0.0004336	0.0003238	1.044e-08	0.0006273	0.000314	8.099e-08	6.706e-08	0.0003137	0.0	0.0	0.0	24.22	0.001298	0.1146	0.0004052	1.436e-05	0.000268	0.6889	3.213e-09	9.42e-06	1.382e-06	4.446e-08	0.001296	0.0	0.0	0.1933	1.317	1.0	0.0
47	4	35.96139223495364	-216923.30923580227	209.3207091979429	226.2152824252523	910.6148658554574	1146.329291925067	1397.7962516754499	0.045180085090881894	-1.1608829224813388	0.8929524644082045	1910.008962883063	7249000.0	3.454e-07	8.439e-14	2.984e-16	1.278e-10	2.698e-14	1.672e-09	6.144e-11	1.782e-06	1.596e-06	2.705e-08	1.333e-08	4.429e-06	8.673e-06	0.3385	0.6615	20980000.0	4.3e-07	4.917e-11	1.739e-13	1.592e-10	1.518e-11	1e-06	1.776e-09	1.575e-06	1.413e-06	1.032e-05	5.11e-06	9.266e-06	1.829e-05	0.0	0.3362	0.6637	14480000.0	5.837e-07	1.133e-10	4.006e-13	2.158e-10	3.395e-11	2.31e-06	2.461e-09	1.42e-06	1.294e-06	3.222e-05	1.6e-05	2.268e-05	4.496e-05	0.0	0.0	0.0	0.3352	0.6647	4.688	0.9986	7.152e-08	2.529e-10	0.0003691	2.972e-08	0.0	0.001025	3.652e-08	5.174e-08	0.0	0.0	0.0	0.0	1.061	0.007769	3.416e-07	1.208e-09	8.586e-05	0.001602	0.9905	8.414e-09	5.635e-05	4.225e-06	1.669e-07	0.0	0.0	0.0	1.562e-06	1.317	1.0	0.0
48	2	40.105211295440405	-265128.48108710954	1468.2482758696967	1927.8967819591953	660.6516652165037	1055.1818836948244	1107.242771188013	-1.4747504876475896	-0.3396269532479539	-0.5175543060121031	1285.873449079427	131.8	0.0009277	0.0001366	4.832e-07	3.416e-07	3.077e-06	0.1594	0.000364	7.107e-07	3.179e-06	0.5645	0.2747	0.0	0.0	0.0	0.0	60.81	0.264	0.04173	0.0001476	9.767e-05	6.882e-07	0.04454	0.000145	0.0007272	0.0006694	0.4336	0.2144	0.0	0.0	0.0	0.0	0.0	42.88	0.1463	0.02331	8.241e-05	5.412e-05	9.626e-07	0.063	7.034e-05	0.0004852	0.0004214	0.5126	0.2537	0.0	0.0	0.0	0.0	0.0	0.0	0.0	139.2	0.2117	0.03516	0.0001243	7.833e-05	4.08e-09	0.0002879	2.011e-05	8.296e-09	1.052e-08	0.04795	0.5549	0.1498	0.0	988.6	6.282e-05	0.0065	2.298e-05	6.952e-07	1.297e-05	0.03662	1.37e-09	4.559e-07	1.043e-07	3.785e-09	0.02101	0.5726	0.1951	0.1681	1.317	1.0	0.0
49	4	29.79679053928703	-94672.41130809521	1097.0354582794473	1909.5150991536973	1003.7751660307162	1170.1468498913746	1606.4558806801704	-1.2182382847821742	-1.1314362587206577	-1.371522646794006	1257.9284349251877	79.7	0.003186	4.163e-06	1.472e-08	1.177e-06	1.311e-06	0.08377	0.0001296	2.072e-06	1.58e-06	0.6111	0.3018	0.0	0.0	0.0	0.0	643.7	0.0003021	3.061e-06	1.082e-08	1.113e-07	9.418e-07	0.06233	8.769e-05	9.109e-07	6.777e-07	0.6268	0.3105	0.0	0.0	0.0	0.0	0.0	287.5	0.05897	3.363e-07	1.189e-09	2.182e-05	9.88e-08	0.00682	1.841e-05	9.494e-05	8.878e-05	0.1892	0.09407	0.6508	0.0	0.0	0.0	0.0	0.0	0.0	12.75	0.995	2.008e-07	7.099e-10	0.0003681	6.292e-08	0.004396	0.0001613	4.156e-08	7.228e-08	6.757e-05	0.0	0.0	0.0	779.1	4.364e-05	5.72e-09	2.023e-11	4.83e-07	9.014e-06	0.02551	9.886e-10	3.167e-07	2.027e-07	8.628e-09	0.02815	0.01591	0.06239	0.868	1.317	1.0	0.0
50	2	8.244083265147824	-79562.02620332967	501.2512668739173	1176.3542887525498	858.7345999311349	1266.872684482411	1996.2986989115611	0.3770051469387956	0.38447417871650047	-1.006214961817805	1980.8617786239527	96.85	0.006148	0.0009412	3.328e-06	2.277e-06	7.003e-07	0.04245	8.513e-05	5.551e-07	1.966e-06	0.3915	0.1925	0.3663	0.0	0.0	0.0	909.6	1.176e-05	1.897e-06	6.709e-09	4.412e-09	3.359e-07	0.02253	3.053e-05	7.014e-08	1.332e-07	0.2717	0.1348	0.0002265	1.973e-07	0.0	0.5707	0.0	47380.0	8.575e-06	1.491e-06	5.271e-09	3.163e-09	1.278e-08	0.0008957	7.904e-07	4.338e-07	3.446e-07	0.02242	0.01117	0.01511	0.01014	0.4469	0.0	0.0	0.4934	0.0	0.9035	0.5568	0.07813	0.0002763	0.0002061	6.004e-06	0.363	0.001599	3.988e-06	1.042e-06	0.0	0.0	0.0	0.0	320.2	5.363e-06	0.0005174	1.829e-06	5.935e-08	1.139e-06	0.005424	1.727e-09	3.892e-08	3.865e-06	1.779e-07	0.1019	0.0	0.0	0.8921	1.317	1.0	0.0
51	3	3.2214780975274153	153635.2070025918	1258.48658495451	554.9341293761747	289.86597111152065	659.0085263570502	708.5440343940235	-1.2862914914679373	1.3586670504258542	0.6448529234145055	1003.6455623338177	0.2203	0.0009661	0.0001083	3.83e-07	3.644e-07	4.727e-05	2.695e-05	0.0009646	1.389e-05	6.371e-05	0.6927	0.3051	0.0	0.0	0.0	0.0	125.1	5.113e-05	4.503e-05	1.592e-07	1.927e-08	2.502e-06	0.1293	0.0002981	2.104e-07	3.316e-06	0.5844	0.2844	0.0	0.001098	0.0004578	0.0	0.0	33.53	0.0001102	0.0003158	1.117e-06	4.151e-08	5.39e-06	0.2946	0.0006371	3.882e-07	6.946e-07	0.3217	0.1571	0.0	0.2153	0.01017	0.0	0.0	0.0	0.0	882.7	1.725e-06	3.066e-05	1.084e-07	6.207e-10	8.741e-08	0.006142	9.579e-06	2.862e-08	1.074e-08	0.008361	0.03176	0.1964	0.7573	2.61	5.18e-07	0.004573	1.617e-05	5.466e-09	1.351e-05	0.8984	7.176e-07	3.585e-09	0.001468	6.759e-05	0.09548	0.0	0.0	0.0	1.317	1.0	0.0
52	3	26.996093731615293	462739.8173705926	1691.8618918335706	1166.3302726240838	89.65792596596816	278.4086592763885	1642.601699304717	0.15488012314065958	-0.7628522666978226	1.4871465647656876	1809.3559553267924	0.06934	0.0003311	0.995	0.003527	1.252e-07	1.622e-05	0.0	2.184e-05	0.001125	0.0	1.165e-06	2.43e-07	0.0	0.0	0.0	0.0	52510000.0	3.126e-12	3.571e-09	1.263e-11	1.179e-15	1.53e-13	1.925e-14	2.755e-12	3.744e-11	2.591e-11	3.669e-09	1.6e-09	0.0	0.0	1.0	0.0	0.0	3863000.0	5.028e-09	2.856e-08	1.01e-10	1.893e-12	2.46e-10	1.701e-05	1.851e-08	4.721e-09	5.267e-09	0.0003413	0.0001697	0.0	5.344e-06	0.2935	0.4965	0.2094	0.0	0.0	1863.0	1.498e-08	0.001371	4.848e-06	5.393e-12	7.594e-10	5.373e-05	6.458e-08	3.774e-10	8.27e-11	0.4221	0.3389	1.181e-08	0.2376	442.7	8.153e-11	0.003979	1.407e-05	8.61e-13	2.127e-09	0.0001582	1.13e-10	5.643e-13	2.586e-07	1.191e-08	0.5734	0.4224	0.0	0.0	1.317	1.0	0.0
53	2	26.057903488655107	222352.19840500876	1737.240288851035	615.6694167285885	291.6923377503284	437.24756546862596	740.836332141473	0.12220187097632351	1.4561268547280362	-1.5190813641741692	918.8726290077284	0.04962	0.8371	0.1068	0.0003777	0.0003097	9.181e-07	1.23e-05	0.0004097	0.003364	0.002309	0.03425	0.0151	0.0	0.0	0.0	0.0	6.619	0.6498	0.0891	0.0003151	0.0002404	1.465e-06	0.03425	0.0002386	0.006485	0.005249	0.1457	0.06864	0.0	0.0	0.0	0.0	0.0	6484.0	3.202e-05	4.802e-06	1.698e-08	1.18e-08	7.593e-08	0.004273	8.767e-06	6.041e-07	6.987e-07	0.01798	0.008799	0.0	2.417e-05	0.02278	0.9461	0.0	0.0	0.0	3677.0	0.003907	0.0006648	2.351e-06	1.446e-06	4.226e-10	2.991e-05	4.066e-07	2.848e-10	2.607e-10	0.00543	0.359	0.01117	0.6198	12.71	0.0007799	0.06817	0.000241	8.63e-06	0.0001611	0.4103	3.909e-09	5.66e-06	5.423e-06	2.384e-07	0.03222	0.4881	0.0	0.0	1.317	1.0	0.0
54	2	37.217873633778154	769501.5083028397	42.65565496886963	1927.067470043527	432.3362139581593	836.2698806319713	1065.2284616068662	1.3751429766168686	1.1553110976263077	-0.6692584144684479	1833.303043481154	3325000.0	1.682e-08	2.299e-09	8.131e-12	6.24e-12	1.525e-11	3.398e-07	1.375e-09	4.352e-11	6.422e-11	1.005e-06	4.73e-07	3.094e-08	0.0	1.0	0.0	86490000.0	7.904e-08	1.206e-08	4.264e-11	2.923e-11	3.267e-12	1.958e-07	3.344e-10	6.766e-10	6.291e-10	9.85e-07	4.84e-07	9.756e-07	0.0	0.0	1.0	0.0	94230000.0	1.148e-07	1.817e-08	6.425e-11	4.248e-11	2.488e-12	1.614e-07	3.196e-10	1.993e-09	1.743e-09	1.454e-06	7.188e-07	2.196e-06	0.0	0.0001575	0.0	0.0	0.9998	0.0	1.576	0.9164	0.07739	0.0002746	0.0003342	2.355e-08	0.0	0.005638	9.356e-07	0.0	0.0	0.0	0.0	0.0	3366.0	1.588e-05	0.001643	5.811e-06	1.758e-07	3.281e-06	0.009264	3.491e-10	1.153e-07	3.361e-08	1.29e-09	0.002731	0.1698	0.1235	0.6931	1.317	1.0	0.0
55	2	38.47435119499729	-664962.2549530454	1718.3256506234013	1082.2284019068572	68.8104297552201	92.09883614086965	1622.8252794954892	-0.7265602884102419	0.2704602095069717	-0.9808560300103728	1195.520049235552	1.254	0.9088	0.08704	0.000309	0.0003366	2.401e-05	0.0	0.003229	0.0002833	0.0	1.016e-07	2.983e-08	0.0	0.0	0.0	0.0	0.8773	0.9045	0.0922	0.0003267	0.0003348	7.581e-06	0.0	0.002081	0.0005274	3.91e-09	5.78e-07	1.032e-07	0.0	0.0	0.0	0.0	0.0	117000000.0	4.913e-08	8.275e-09	2.926e-11	1.819e-11	4.371e-12	3.02e-07	3.765e-10	4.383e-08	4.028e-08	6.204e-06	3.086e-06	0.0	7.06e-07	0.423	0.4543	0.1227	0.0	0.0	2098.0	0.01479	0.002512	8.884e-06	5.472e-06	3.365e-10	2.382e-05	1.162e-06	5.186e-10	6.679e-10	0.425	0.2178	4.951e-06	0.3399	354.2	9.834e-05	0.009372	3.314e-05	1.088e-06	2.031e-05	0.05596	6.763e-10	7.137e-07	1.824e-07	6.842e-09	0.6191	0.3154	0.0	0.0	1.317	1.0	0.0
56	4	15.172912583389063	-150383.17609412526	299.0384257530774	1655.970050241383	300.53091524413406	800.2256637440138	1036.1356701781478	0.9417741778035187	0.29167857638665096	1.494929937410491	1561.5324368415759	5.756	0.06195	6.515e-05	2.304e-07	2.296e-05	2.508e-05	4.568e-05	0.0004158	1.104e-05	5.149e-05	0.6492	0.2882	3.598e-13	0.0	0.0	0.0	24220.0	5.531e-06	2.411e-09	8.527e-12	2.048e-09	7.864e-10	4.617e-05	9.641e-08	5.671e-10	1.644e-09	0.0002617	0.0001284	0.0001963	0.0	0.354	0.6453	0.0	309300.0	6.404e-06	2.545e-09	9.001e-12	2.367e-09	7.977e-10	5.14e-05	7.454e-08	4.052e-09	2.844e-09	0.0003392	0.0001676	0.0006099	0.0	0.3611	0.0	0.0	0.6377	0.0	1.114	0.9992	2.416e-06	8.543e-09	0.0003695	9.387e-07	3.929e-05	0.0004287	9.374e-08	1.571e-08	0.0	0.0	0.0	0.0	1950.0	3.998e-06	7.642e-09	2.702e-11	4.425e-08	8.278e-07	0.002474	1.711e-10	2.902e-08	2.559e-07	1.172e-08	0.1793	0.01599	0.1159	0.6864	1.317	1.0	0.0
57	2	5.164400148159091	72093.87479914702	1048.1467448604628	1248.0857869537163	1376.6329613673709	1681.7752552300103	1756.8369596875646	-0.051691904039893766	0.4437960492739097	-0.1641077302121714	607.2081431534153	68.72	0.005679	0.0009343	3.304e-06	2.101e-06	2.817e-08	0.001912	1.566e-06	2.361e-06	2.658e-06	0.1894	0.09402	0.6547	0.05341	0.0	0.0	2280.0	3.718e-06	6.194e-07	2.19e-09	1.413e-09	4.459e-07	0.0309	3.289e-05	3.685e-07	2.011e-07	0.6463	0.3215	0.0006962	0.0005407	0.0	0.0	0.0	202.0	0.0005026	8.573e-05	3.032e-07	1.857e-07	1.857e-07	0.01291	1.236e-05	3.095e-06	2.43e-06	0.09048	0.04503	0.4482	0.4027	0.0	0.0	0.0	0.0	0.0	2.22	0.1653	0.02609	9.225e-05	6.121e-05	1.157e-05	0.8068	0.001718	4.522e-06	1.68e-06	0.0	0.0	0.0	0.0	15.03	4.716e-05	0.004589	1.623e-05	5.219e-07	1.154e-05	0.1623	9.672e-08	3.422e-07	0.0002213	1.019e-05	0.0	0.0	0.0	0.8328	1.317	1.0	0.0
58	2	35.38870322764575	-345610.4866078516	333.9998536742903	34.6937684987081	1062.2172276712188	1465.8104507927549	1567.6145991838334	-0.13214954177565352	-1.2288184509534217	0.7442970251541929	1916.7554959979186	10530000.0	1.829e-07	2.895e-08	1.024e-10	6.767e-11	1.275e-13	8.267e-09	1.751e-11	1.053e-06	8.957e-07	4.288e-08	2.12e-08	2.951e-06	8.142e-06	0.2803	0.7196	46570000.0	2.621e-07	4.351e-08	1.538e-10	9.702e-11	8.084e-12	5.529e-07	8.22e-10	9.903e-07	8.671e-07	9.484e-06	4.712e-06	9.432e-06	2.22e-05	0.0	0.3084	0.6916	27630000.0	3.138e-07	5.263e-08	1.861e-10	1.16e-10	2.018e-11	1.39e-06	1.347e-09	9.638e-07	8.536e-07	2.461e-05	1.224e-05	1.507e-05	3.473e-05	0.0	0.0	0.0	0.3114	0.6885	27.17	0.2439	0.03189	0.0001128	9.021e-05	7.745e-09	3.882e-05	0.0001257	1.596e-08	1.386e-08	0.0	0.0	0.0	0.7238	0.09212	0.01995	0.9722	0.003456	0.000215	0.00401	0.0	1.809e-08	0.0001424	0.0	0.0	0.0	0.0	0.0	0.0	1.802	0.7308	0.2692
59	1	5.107050652654463	21309.84438350913	128.05507395757684	695.7008769525245	236.3949149028958	779.4125039998611	1121.0996180034895	1.1754919081992852	-1.405932503863566	-0.2584744143792883	1791.7531566926393	0.07943	0.001208	0.0001468	5.194e-07	4.556e-07	5.91e-05	0.0	0.0006767	2.881e-05	0.0001134	0.7032	0.2915	0.002989	0.0	0.0	0.0	1326.0	1.65e-07	2.464e-08	8.714e-11	6.215e-11	8.071e-09	0.0004675	9.332e-07	3.806e-08	3.699e-08	0.0003043	0.0001492	0.1027	5.403e-05	1.903e-05	0.8963	0.0	762.6	1.917e-05	3.028e-06	1.071e-08	7.22e-09	9.379e-07	0.06154	9.188e-05	1.128e-07	4.239e-07	0.561	0.2777	0.001996	0.0009308	0.0007147	0.0002045	0.0	0.09581	0.0	0.0001445	0.6372	0.07036	0.0002489	0.0002277	0.03215	0.0	0.2593	0.0005028	1.746e-05	0.0	0.0	0.0	0.0	96.56	6.736e-09	5.724e-07	2.024e-09	7.11e-11	1.757e-07	0.01235	9.333e-09	4.662e-11	2.019e-05	9.297e-07	0.00081	0.0	0.0	0.9868	1.317	1.0	0.0
60	3	41.477490495368556	-651991.456810059	1236.280175996123	207.77699580251527	1651.7788914117202	1918.0543254864915	1939.294874576802	-0.8919568352864563	-0.8058161087369209	0.016444425093782966	1614.7616711919047	52540000.0	1.133e-10	2.12e-08	7.497e-11	4.264e-14	5.541e-12	3.834e-07	4.153e-10	1.947e-06	1.771e-06	7.615e-06	3.788e-06	4.451e-07	1.068e-05	0.0	1.0	173300000.0	5.142e-11	2.436e-08	8.615e-11	1.935e-14	2.515e-12	1.759e-07	1.671e-10	1.867e-06	1.696e-06	5.279e-06	2.629e-06	1.54e-06	1.523e-05	0.0	0.0	1.0	49490000.0	1.553e-10	2.707e-08	9.572e-11	5.844e-14	7.596e-12	5.315e-07	5.002e-10	1.842e-06	1.679e-06	1.481e-05	7.374e-06	2.028e-06	1.913e-05	0.0	0.0	0.0	0.0	1.0	1127.0	8.029e-09	0.003911	1.383e-05	2.889e-12	4.068e-10	2.857e-05	4.524e-08	5.434e-10	5.658e-11	0.0	0.0	0.0	0.996	0.7441	4.872e-09	0.9952	0.00352	5.134e-11	1.269e-07	0.00126	6.741e-09	3.369e-11	2.075e-06	9.559e-08	0.0	0.0	0.0	0.0	1.317	1.0	0.0
61	3	1.1973278845658935	-354342.27273079904	637.7944143028981	1863.8940128423656	388.25906295555666	1364.284829062697	1672.1212634839978	-0.42775008314720053	1.1529167364995137	0.08654656056853227	1020.0520422346455	0.4057	0.0007167	0.0006579	2.327e-06	2.702e-07	3.507e-05	0.3893	0.002603	2.188e-05	2.45e-05	0.4143	0.1923	0.0	0.0	0.0	0.0	1742.0	1.494e-05	4.602e-07	1.627e-09	5.626e-09	7.309e-07	0.04956	6.308e-05	2.858e-07	1.484e-07	0.4065	0.2018	0.02569	0.0	0.007883	0.3084	0.0	1435.0	2.189e-06	4.39e-06	1.552e-08	8.241e-10	1.071e-07	0.007417	7.95e-06	7.36e-08	1.015e-07	0.1092	0.05431	0.481	0.0	0.01902	0.0	0.0	0.329	0.0	23.33	0.0002663	8.121e-05	2.872e-07	9.57e-08	1.348e-05	0.8861	0.002443	7.211e-06	2.21e-06	0.1111	0.0	0.0	0.0	1820.0	1.507e-08	3.041e-06	1.075e-08	1.593e-10	3.931e-07	0.02974	2.088e-08	1.043e-10	4.861e-05	2.239e-06	0.1555	0.01297	0.004748	0.797	1.317	1.0	0.0
62	4	26.350819174423705	404385.3252722726	1856.1446432486416	1143.5477150605072	464.0630258352467	1342.6589232083118	1628.5367394685409	-0.4065064994522547	-0.5143647988862623	0.2616528996414704	1432.255063313218	8.18	0.3773	1.395e-05	4.933e-08	0.0001395	4.973e-06	0.1439	0.0008167	0.001109	0.0009083	0.3228	0.1531	0.0	0.0	0.0	0.0	5400000.0	5.443e-07	3.614e-10	1.278e-12	2.016e-10	1.09e-10	7.373e-06	1.029e-08	2.19e-08	1.871e-08	0.0001035	5.137e-05	0.0	1.015e-06	0.9998	0.0	0.0	2326000.0	6.683e-07	2.631e-10	9.303e-13	2.47e-10	7.714e-11	5.331e-06	5.187e-09	2.631e-08	2.515e-08	0.0001005	4.997e-05	0.0	1.865e-05	0.9998	0.0	0.0	0.0	0.0	2178.0	0.007139	2.543e-09	8.992e-12	2.642e-06	7.384e-10	5.232e-05	6.765e-07	2.739e-10	4.333e-10	0.5191	0.02165	0.001108	0.451	193.9	8.833e-05	1.76e-08	6.224e-11	9.775e-07	1.825e-05	0.05074	8.835e-10	6.411e-07	6.391e-07	2.803e-08	0.9491	0.0	0.0	0.0	1.317	1.0	0.0
63	1	3.3514197793334035	965037.3511266431	1727.8837241318063	16.77241883777045	270.8083673294979	532.5582831219746	1467.799270385973	-1.2921929206514302	-0.6672784118718001	1.4484244951827732	1161.8903062230784	35.13	7.953e-05	9.919e-06	3.508e-08	3e-08	3.892e-06	1.176e-07	6.458e-05	1.871e-06	4.622e-06	0.04728	0.02048	0.0	0.04958	0.0	0.8825	969.2	2.738e-06	3.846e-07	1.36e-09	1.032e-09	1.34e-07	0.005328	1.538e-05	1.336e-06	1.012e-06	0.008927	0.004285	0.0	0.01789	0.0	0.0	0.9636	11880.0	2.026e-07	3.33e-08	1.177e-10	7.627e-11	9.91e-09	0.000678	8.119e-07	6.805e-07	7.038e-07	0.03016	0.01499	0.0	0.1096	0.01717	0.0552	0.03799	0.0	0.7342	3900.0	4.728e-07	8.173e-08	2.89e-10	1.702e-10	2.397e-08	0.001697	2e-06	5.985e-09	2.439e-09	0.07141	0.05981	0.004865	0.8622	5.272e-06	0.01552	0.5738	0.002075	0.0001564	0.3877	0.0	0.02058	0.0001017	0.0	0.0	0.0	0.0	0.0	0.0	1.45	0.9082	0.09177
64	2	8.58107765545782	-585818.1246908258	600.329323126494	578.4973273935065	1198.9300482971814	1400.6737959331326	1828.0148540286275	-0.9651283239855348	0.7864574559756359	-1.0546041424921881	935.7563639394101	27090.0	6.856e-06	1.107e-06	3.914e-09	2.529e-09	9.611e-09	0.0006389	8.727e-07	1.12e-05	1.021e-05	0.005615	0.002782	0.001839	0.003991	0.0	0.9851	385000.0	1.95e-06	3.218e-07	1.138e-09	7.211e-10	1.16e-10	7.895e-06	8.411e-09	3.336e-06	3.052e-06	4.179e-05	2.075e-05	0.0007524	0.001588	0.0	0.3128	0.6848	368100.0	1.196e-06	2.045e-07	7.233e-10	4.438e-10	1.841e-09	0.0001284	1.307e-07	2.251e-06	1.973e-06	0.003706	0.001845	0.0006817	0.001403	0.0	0.0	0.0	0.3254	0.6668	1.104	0.5737	0.08296	0.0002934	0.0002123	5.271e-06	0.3414	0.001402	3.191e-06	9.57e-07	0.0	0.0	0.0	1.169e-05	0.9576	0.001065	0.09217	0.0003259	1.179e-05	0.0002253	0.9056	2.871e-07	7.73e-06	0.0005915	2.723e-05	0.0	0.0	0.0	0.0	1.317	1.0	0.0
65	2	16.889554705128322	460735.2719026152	528.8044446698267	494.09893129209655	64.76125097712085	528.7971833655066	1559.6736534589895	0.3253141461034035	-0.6562407592581081	1.4136854575524547	487.2262740314475	0.2508	0.9097	0.08594	0.0003053	0.0003374	1.797e-05	0.0	0.003077	0.0006248	0.0	7.079e-08	2.123e-08	0.0	0.0	0.0	0.0	3733000.0	1.611e-07	2.281e-08	8.066e-11	5.965e-11	1.194e-11	4.688e-07	1.349e-09	1.372e-08	1.155e-08	1.527e-06	7.327e-07	0.0	8.996e-12	1.0	0.0	0.0	1693000.0	5.373e-07	9.014e-08	3.187e-10	1.983e-10	4.633e-10	3.189e-05	3.461e-08	3.008e-07	2.588e-07	0.0005507	0.0002738	0.0001058	0.0002232	0.4365	0.3617	0.06974	0.04226	0.08861	25.36	0.08704	0.01232	4.358e-05	3.22e-05	5.329e-08	0.003304	4.564e-05	4.493e-08	1.516e-08	0.8972	2.175e-20	0.0	5.303e-06	20.67	0.0001676	0.01413	4.997e-05	1.854e-06	3.465e-05	0.08448	3.186e-09	1.216e-06	5.909e-06	2.699e-07	0.9011	0.0	0.0	0.0	1.317	1.0	0.0
66	3	29.345509979989988	-457141.9270420978	889.2451118762466	1279.9472667290045	411.3576143866834	1700.061291902707	1751.6499812228037	0.8691216726104303	0.7823900760708984	0.5942236307239646	1622.0632464812254	9.842	0.0001892	0.01565	5.534e-05	7.135e-08	9.259e-06	0.1595	0.0007965	0.0003167	0.0002535	0.5609	0.2623	0.0	0.0	0.0	0.0	4540000.0	2.521e-10	5.27e-07	1.864e-09	9.489e-14	1.233e-11	8.552e-07	9.037e-10	3.969e-07	3.602e-07	1.42e-05	7.065e-06	0.0001068	4.369e-05	0.9998	0.0	0.0	20380.0	6.897e-07	3.923e-07	1.387e-09	2.596e-10	3.374e-08	0.002345	2.414e-06	2.742e-07	1.867e-07	0.05448	0.02711	0.0002115	0.0001019	0.9157	0.0	0.0	0.0	0.0	21.93	6.236e-07	0.07237	0.0002559	2.243e-10	3.158e-08	0.002177	4.538e-06	2.906e-08	4.783e-09	0.9252	0.0	0.0	0.0	185.6	1.782e-10	0.01231	4.352e-05	1.882e-12	4.649e-09	0.0003475	2.469e-10	1.233e-12	5.679e-07	2.616e-08	0.5072	0.0	0.0	0.4801	1.317	1.0	0.0
67	2	49.52485368258369	281918.5307253732	1653.5705346034372	350.59377041673986	34.728589418806116	1716.7054377458019	1745.0461275571474	-1.0525474555153593	-0.4179313710779582	1.338651227315343	1396.4104078082612	0.4736	0.9168	0.07521	0.0002702	0.0003457	5.812e-05	0.0	0.005635	0.001647	0.0	2.383e-09	7.797e-10	0.0	0.0	0.0	0.0	10380000.0	7.741e-07	1.315e-07	4.65e-10	2.863e-10	5.237e-12	3.635e-07	2.421e-10	1.836e-06	1.669e-06	7.585e-06	3.774e-06	2.223e-11	4.471e-05	0.239	0.0	0.7609	43010000.0	7.739e-07	1.317e-07	4.658e-10	2.864e-10	7.745e-12	5.382e-07	8.137e-10	1.84e-06	1.682e-06	1.32e-05	6.57e-06	3.996e-10	4.413e-05	0.2243	0.0	0.0	0.0	0.7756	2945.0	0.01689	0.002854	1.009e-05	6.25e-06	1.4e-10	9.903e-06	1.26e-06	4.535e-10	6.844e-10	0.1095	0.0	0.0	0.8707	12.83	0.001745	0.1389	0.0004912	1.93e-05	0.0003602	0.6595	1.39e-09	1.266e-05	1.051e-06	3e-08	0.1989	0.0	0.0	0.0	1.317	1.0	0.0
68	2	9.501865158469995	-183425.12722265697	1108.8007430759023	900.3887834373355	646.0212334660465	1193.2622408991654	1502.821203345834	-0.2202790650122446	-0.6872001954872913	-0.782320899172348	1256.73476272582	2.14	0.2219	0.03249	0.0001149	8.205e-05	6.088e-06	0.3092	0.0007349	0.0001545	0.0001302	0.2929	0.1424	0.0	0.0	0.0	0.0	498.1	0.0002221	3.588e-05	1.269e-07	8.174e-08	9.607e-07	0.06381	8.862e-05	3.214e-06	2.113e-06	0.6118	0.3032	0.0	0.02085	0.0	0.0	0.0	40710.0	1.476e-05	2.456e-06	8.686e-09	5.47e-09	7.974e-09	0.0005469	6.731e-07	5.279e-07	5.409e-07	0.01111	0.005524	0.0006635	0.003908	0.9782	0.0	0.0	0.0	0.0	101.1	0.01288	0.002051	7.254e-06	4.766e-06	7.875e-08	0.005505	1.6e-05	3.278e-08	1.347e-08	0.7056	0.0	0.0	0.2739	15.35	0.0001183	0.01097	3.879e-05	1.309e-06	2.483e-05	0.09495	2.159e-08	8.587e-07	4.735e-05	2.179e-06	0.8938	0.0	0.0	0.0	1.317	1.0	0.0
69	2	44.20290937698541	746187.5103796031	1498.2474917165778	452.3968535931732	674.8713265116716	933.0453932691513	1532.7240136078644	0.7376250087991427	-1.4783957546173325	1.3002336885659789	719.76951739012	1.791	0.04829	0.007118	2.517e-05	1.787e-05	1.008e-06	0.05314	0.0001406	0.2766	0.2419	0.2052	0.09995	0.0	0.06766	0.0	0.0	52380000.0	1.308e-07	2.029e-08	7.176e-11	4.844e-11	8.359e-12	5.224e-07	1.022e-09	1.18e-05	1.066e-05	3.493e-06	1.722e-06	0.0	1.135e-06	0.0	0.0	1.0	219800000.0	1.207e-07	2.017e-08	7.131e-11	4.463e-11	1.22e-12	8.383e-08	6.742e-11	3.064e-06	2.789e-06	1.378e-06	6.849e-07	1.848e-13	5.94e-06	6.279e-05	0.0	0.0	0.0	0.9999	1747.0	0.02085	0.003473	1.228e-05	7.715e-06	2.723e-10	1.923e-05	1.852e-06	7.078e-10	9.657e-10	0.001401	0.03633	0.0	0.9379	12.07	0.001826	0.1518	0.0005367	2.02e-05	0.000377	0.8455	2.449e-09	1.325e-05	1.816e-06	6.01e-08	0.0	0.0	0.0	0.0	1.317	1.0	0.0
70	2	19.479122041525837	35872.28053047205	840.4830191812111	1324.3876324654216	251.11332602562084	896.543406472596	1680.5537068854126	-0.6756908432926257	0.9811400707910534	0.4094374456483967	1715.3100800869934	0.7581	0.3959	0.04914	0.0001738	0.0001463	3.311e-05	0.0	0.001299	1.104e-05	4.938e-05	0.3885	0.1647	0.0	0.0	0.0	0.0	533.9	0.0008561	0.0001318	4.661e-07	3.176e-07	9.516e-07	0.05865	0.0001071	1.465e-07	6.272e-07	0.3644	0.1794	9.411e-08	0.0	0.3964	0.0	0.0	3080.0	0.001809	0.0003063	1.083e-06	6.69e-07	9.142e-09	0.0006335	4.086e-07	3.413e-06	2.99e-06	0.007387	0.003675	0.1515	0.03684	0.1522	0.6456	0.0	0.0	0.0	33.68	0.1285	0.01962	6.937e-05	4.755e-05	4.448e-08	0.00305	4.129e-05	3.564e-08	1.908e-08	0.8487	0.0	0.0	0.0	308.3	3.441e-05	0.003378	1.194e-05	3.809e-07	7.114e-06	0.02028	6.762e-10	2.498e-07	8.122e-07	3.685e-08	0.4454	0.02668	0.0	0.5042	1.317	1.0	0.0
71	3	28.49806704440653	-845964.6346755488	1563.4039963838238	1967.1502589914905	444.02888167359686	821.5630490387165	1829.37581845275	0.31924680193839094	-1.3156549601755312	-0.4337792421756177	818.0215725954201	0.3569	0.0001189	0.1204	0.0004257	4.482e-08	5.817e-06	0.1447	0.0005712	0.001458	0.001181	0.4968	0.2345	0.0	0.0	0.0	0.0	145.2	4.197e-05	0.004291	1.518e-05	1.581e-08	2.053e-06	0.1221	0.0002335	0.0001821	0.0001526	0.5855	0.2875	0.0	0.0	0.0	0.0	0.0	27830000.0	3.659e-10	5.453e-08	1.928e-10	1.377e-13	1.79e-11	1.248e-06	1.237e-09	1.72e-08	1.616e-08	3.426e-05	1.705e-05	5.382e-07	0.0	0.02087	0.2747	0.7044	0.0	0.0	281.5	8.317e-08	0.009347	3.305e-05	2.994e-11	4.216e-09	0.0002979	3.844e-07	2.404e-09	4.845e-10	0.1914	0.7989	0.0	0.0	916.8	5.533e-11	0.003611	1.277e-05	5.851e-13	1.443e-09	0.0001093	7.667e-11	3.829e-13	1.787e-07	8.228e-09	0.1297	0.7368	0.001655	0.1281	1.317	1.0	0.0
72	4	6.2864056922964355	-622523.3626396924	427.4642781144297	122.48118739764568	811.5225877806338	1169.9455455171121	1440.1095959723175	1.2360010128897314	1.4023450154302797	0.5498542031788864	567.9968528542083	2017.0	6.781e-07	2.143e-08	7.577e-11	2.53e-10	6.973e-09	0.0004122	7.995e-07	2.179e-06	1.772e-06	0.002192	0.001076	2.6e-05	0.0001371	0.0	0.9962	430500.0	1.35e-06	2.46e-10	8.699e-13	4.997e-10	7.57e-11	5.01e-06	8.399e-09	1.383e-06	1.22e-06	0.0001486	7.358e-05	0.0006682	0.002013	0.0	0.2593	0.7378	7354.0	4.657e-06	3.879e-07	1.371e-09	1.701e-09	1.158e-07	0.007902	9.49e-06	4.126e-07	6.52e-07	0.1087	0.05398	0.01335	0.03467	0.0	0.0	0.0	0.2036	0.5778	35.15	0.007294	6.376e-07	2.255e-09	2.7e-06	2.325e-07	0.01242	5.49e-05	1.677e-07	3.85e-08	0.0	0.0	0.0	0.9802	0.0001988	0.7706	0.0323	0.0001143	0.008494	0.1718	0.01036	0.0007142	0.005581	1.829e-05	8.425e-07	0.0	0.0	0.0	0.0	1.332	0.989	0.01096
73	1	31.09068431102014	25851.65094394842	1757.6363299724007	1042.4229634714593	388.84118764189265	915.113011003136	1112.2730712711234	-0.8404471254181877	0.17793880410720186	-0.38275212269426784	813.5984736182415	12.66	0.0002573	3.425e-05	1.211e-07	9.701e-08	1.259e-05	0.1418	0.0009386	6.883e-06	2.321e-05	0.5852	0.2717	0.0	0.0	0.0	0.0	15060.0	2.67e-07	4.09e-08	1.446e-10	1.006e-10	1.306e-08	0.000811	1.423e-06	1.876e-09	9.003e-09	0.005505	0.002713	0.0	0.0	0.991	0.0	0.0	388.4	5.195e-06	8.197e-07	2.899e-09	1.957e-09	2.542e-07	0.01665	2.501e-05	6.353e-09	1.401e-07	0.1571	0.07775	0.0	4.912e-07	0.7485	0.0	0.0	0.0	0.0	2010.0	1.082e-08	1.875e-09	6.629e-12	3.895e-12	5.485e-10	3.884e-05	4.508e-08	1.35e-10	5.521e-11	0.3492	0.1729	0.004542	0.4733	107.7	2.295e-10	2.074e-08	7.334e-11	2.423e-12	5.987e-09	0.0004421	3.18e-10	1.588e-12	7.226e-07	3.328e-08	0.9896	0.009943	0.0	0.0	1.317	1.0	0.0
74	3	16.26754724528254	354972.1081730509	1363.5441768720239	604.3187319097485	907.5775175281206	976.5478018105248	1208.591796645089	0.4666407376369057	-0.6993789353814731	-1.377276251634364	978.0532454502138	88.92	1.645e-05	0.002624	9.279e-06	6.196e-09	8.047e-07	0.04982	8.797e-05	0.001441	0.001265	0.3842	0.1893	0.0	0.3712	0.0	0.0	65.99	2.516e-06	0.003449	1.22e-05	9.476e-10	1.231e-07	0.007803	1.3e-05	0.002371	0.002114	0.1011	0.04991	0.0	0.8332	0.0	0.0	0.0	803.0	1.702e-05	9.072e-05	3.208e-07	6.411e-09	8.329e-07	0.05545	7.792e-05	0.0003023	0.0002872	0.5717	0.2833	0.0	0.08872	0.0	0.0	0.0	0.0	0.0	943.7	6.774e-08	0.0007923	2.802e-06	2.438e-11	3.433e-09	0.0002418	3.52e-07	1.357e-09	4.105e-10	0.06245	0.03852	0.0006882	0.8973	0.4339	1.312e-07	0.7636	0.0027	1.385e-09	3.423e-06	0.2333	1.818e-07	9.081e-10	0.0003811	1.755e-05	0.0	0.0	0.0	0.0	1.317	1.0	0.0
75	1	16.651320538339412	861455.097253903	539.1397323671702	275.3726324899697	52.466910775209705	1056.4470278734032	1778.4856942809406	0.1884416017199122	-0.6764441785099656	-0.1683663969528597	1074.9358008526085	0.002742	0.009437	0.0008432	3.002e-06	3.587e-06	0.000465	0.0	0.0002507	0.989	0.0	5.2e-07	1.634e-07	0.0	0.0	0.0	0.0	3095000.0	4.081e-09	6.389e-10	2.259e-12	1.537e-12	1.996e-10	1.293e-05	2.023e-08	6.112e-07	5.34e-07	0.0001025	5.07e-05	5.682e-06	2.346e-05	0.7838	0.0	0.216	8463000.0	2.031e-10	3.431e-11	1.213e-13	7.645e-14	9.936e-12	6.914e-07	7.024e-10	5.418e-07	4.962e-07	2.091e-05	1.041e-05	5.015e-05	0.000125	0.5257	0.1068	0.0	0.1081	0.2592	61.56	4.536e-07	6.545e-08	2.314e-10	1.629e-10	2.295e-08	0.001435	4.633e-06	1.383e-08	3.928e-09	0.4241	0.0	0.0	0.5745	2.617	1.081e-08	7.864e-07	2.781e-09	1.14e-10	2.819e-07	0.009684	1.497e-08	7.482e-11	1.582e-05	7.288e-07	0.9903	0.0	0.0	0.0	1.317	1.0	0.0
76	2	46.219128567907035	-882561.4994340305	865.1818276099037	746.2899832318623	111.3379893561849	397.6539498291237	1207.185588192256	0.9854554788478991	-0.5855093100358739	-0.6027579519009061	591.8361911353444	1.103	0.8932	0.09464	0.0003351	0.0003307	4.699e-05	0.0	0.001427	0.009654	0.0003025	7.171e-05	6.769e-06	0.0	0.0	0.0	0.0	349900000.0	2.757e-08	3.719e-09	1.315e-11	1.02e-11	3.245e-14	4.432e-10	2.072e-11	5.043e-09	3.951e-09	1.39e-09	6.473e-10	0.0	0.0	1.0	0.0	0.0	166100000.0	9.74e-09	1.573e-09	5.561e-12	3.599e-12	2.214e-12	1.474e-07	1.917e-10	4.616e-08	4.155e-08	1.573e-06	7.796e-07	1.988e-08	8.694e-08	0.05786	0.3733	0.5688	0.0	0.0	143.2	0.1744	0.02674	9.455e-05	6.451e-05	1.904e-09	0.0001309	3.153e-05	1.006e-08	1.143e-08	0.2702	0.5085	0.0	0.01985	81.85	0.000448	0.04036	0.0001427	4.957e-06	9.251e-05	0.244	1.401e-09	3.251e-06	4.598e-07	1.438e-08	0.2975	0.4175	0.0	0.0	1.317	1.0	0.0
77	1	20.647496941848694	272280.6187682415	1211.7262369449677	209.2991062944687	333.5767983560072	1503.519797905621	1898.6219445748586	-0.7374049646829736	-0.5605804082158146	-0.4519854445309286	1398.456410886457	5.802	0.0002988	3.871e-05	1.369e-07	1.127e-07	1.462e-05	0.0004095	0.0005057	0.1228	0.09202	0.4213	0.1909	0.0	0.1717	0.0	0.0	500300.0	2.557e-08	4.217e-09	1.491e-11	9.626e-12	1.251e-09	8.579e-05	1.007e-07	9.506e-07	9.042e-07	0.001527	0.0007589	1.267e-05	0.0006425	0.4893	0.0	0.5077	586600.0	1.146e-13	1.954e-14	6.911e-17	4.314e-17	5.607e-15	3.919e-10	3.758e-13	3.985e-07	3.631e-07	4.064e-06	2.024e-06	0.0003243	0.003071	0.6954	0.08695	0.0	0.0	0.2142	1244.0	2.885e-08	4.735e-09	1.674e-11	1.038e-11	1.462e-09	0.0001026	1.653e-07	4.885e-10	1.832e-10	0.155	0.0	0.0	0.8449	0.004052	3.632e-06	0.000251	8.877e-07	3.827e-08	9.461e-05	0.9979	5.025e-06	2.512e-08	0.001642	7.564e-05	0.0	0.0	0.0	0.0	1.317	1.0	0.0
78	3	14.578707210037457	333240.0048816325	406.5287559112256	1020.2753546812932	450.8731202983025	637.3782394795113	1261.9984771493644	0.9309907483317721	-0.12769626596414763	-1.0810450748537825	1641.3113170090064	30.66	0.0001419	0.002281	8.068e-06	5.35e-08	6.943e-06	0.1826	0.0006958	1.572e-05	2.572e-05	0.5528	0.2614	1.728e-06	0.0	0.0	0.0	6.587	5.064e-05	0.008458	2.991e-05	1.908e-08	2.478e-06	0.1242	0.0002954	9.847e-05	9.008e-05	0.2938	0.1427	0.4301	0.0	0.0	0.0	0.0	380400.0	1.42e-08	6.632e-07	2.345e-09	5.347e-12	6.946e-10	4.658e-05	6.32e-08	1.656e-08	1.769e-08	0.0004628	0.0002295	0.0006157	6.083e-05	0.421	0.3464	0.0	0.2312	0.0	0.2529	0.000114	0.708	0.002504	4.093e-08	5.766e-06	0.288	0.001376	4.358e-06	1.008e-06	0.0	0.0	0.0	0.0	267.7	4.125e-10	0.001679	5.936e-06	4.355e-12	1.076e-08	0.0007934	5.715e-10	2.855e-12	1.297e-06	5.971e-08	0.1885	0.05728	0.0	0.7517	1.317	1.0	0.0
79	4	40.495303245654476	-807389.7806739095	1062.9635925673767	261.365287920508	750.3865429198219	812.7840923114426	1222.633828283526	1.4314570485009321	-0.5083999998501885	1.532368043330833	464.90410579213903	11560000.0	2.169e-08	1.007e-10	3.56e-13	8.053e-12	3.317e-11	1.881e-06	3.929e-09	3.633e-06	3.216e-06	8.273e-06	4.049e-06	0.0	1.545e-07	0.0	1.0	966300.0	1.647e-08	4.137e-10	1.463e-12	6.138e-12	1.346e-10	7.961e-06	1.544e-08	3.324e-06	2.933e-06	4.014e-05	1.97e-05	0.0	7.711e-08	0.0	0.0	0.9999	456000000.0	5.551e-08	8.04e-14	2.843e-16	2.054e-11	2.458e-14	1.639e-09	3.566e-12	2.463e-06	2.228e-06	1.154e-08	5.721e-09	1.046e-08	2.229e-06	0.0	0.0	0.0	0.0	1.0	663.7	0.03438	2.024e-09	7.156e-12	1.272e-05	6.373e-10	4.446e-05	4.963e-06	6.856e-10	2.028e-09	0.0006527	1.046e-05	0.0	0.9649	2.638	0.004457	1.252e-07	4.427e-10	4.928e-05	0.0009196	0.9945	3.718e-09	3.233e-05	2.833e-06	1.027e-07	0.0	0.0	0.0	0.0	1.317	1.0	0.0
80	2	41.71540268605232	-650953.6124655583	1531.2271408207396	1367.103845484988	946.5341145655574	1203.9470400325563	1526.678736938277	-0.16922695494937057	0.9733723287373648	-0.5223750105973544	1878.9829054804823	11.43	0.5908	0.09188	0.0003249	0.0002186	4.898e-07	0.03075	7.687e-05	0.03129	0.02788	0.1519	0.07489	0.0	0.0	0.0	0.0	564.1	0.01458	0.002351	8.314e-06	5.399e-06	8.35e-07	0.05555	9.098e-05	0.001529	0.001409	0.6181	0.3063	0.0	0.0	0.0	0.0	0.0	651.9	0.01958	0.003271	1.157e-05	7.243e-06	5.39e-07	0.03703	3.407e-05	0.004028	0.003625	0.618	0.3072	0.0	0.007276	0.0	0.0	0.0	0.0	0.0	151.0	0.2189	0.03657	0.0001293	8.097e-05	3.603e-09	0.0002545	1.932e-05	7.783e-09	1.028e-08	0.5484	0.1094	5.616e-12	0.08629	70.22	0.000712	0.0702	0.0002482	7.88e-06	0.0001471	0.4105	7.622e-09	5.168e-06	1.036e-06	3.63e-08	0.4928	0.02531	0.0	0.0	1.317	1.0	0.0
81	3	5.210402025579117	-38186.41835453885	761.1527881187222	840.9002113921309	127.53633324040786	415.3622133136508	682.4826121705332	1.211979349483336	-1.0468726372850607	-0.8645867004869492	1533.1218065921103	0.001198	0.4643	0.1914	0.0006776	0.0001753	0.02273	0.0	0.06331	0.001841	0.001506	0.2249	0.02915	0.0	0.0	0.0	0.0	11.87	8.445e-05	0.001437	5.08e-06	3.184e-08	4.132e-06	0.07535	0.0003627	2.008e-06	1.404e-05	0.4522	0.2118	0.0	0.0	0.2587	0.0	0.0	124.5	5.067e-05	8.481e-05	2.999e-07	1.909e-08	2.479e-06	0.1318	0.0002945	1.219e-07	1.459e-06	0.3518	0.1715	0.0	0.0	0.001706	0.3427	0.0	0.0	0.0	27.37	1.39e-05	0.001565	5.532e-06	4.998e-09	7.039e-07	0.04771	0.0001131	3.398e-07	1.09e-07	0.03286	0.9176	8.343e-05	0.0	49.54	1.481e-08	0.0009549	3.377e-06	1.563e-10	3.862e-07	0.02795	2.052e-08	1.025e-10	4.567e-05	2.103e-06	0.02531	0.9026	0.04286	0.0002763	1.317	1.0	0.0
82	2	29.96487180935785	-722144.4494707875	1412.787667640764	325.40380969995414	813.4961902157818	1017.5791053929598	1609.40155574418	0.43298324317193027	-0.32090678828120867	-0.5121222413908035	306.1373179774304	82900000.0	8.93e-08	1.356e-08	4.795e-11	3.305e-11	1.05e-12	6.212e-08	1.607e-10	4.532e-06	4.059e-06	3.592e-07	1.763e-07	0.0	1.729e-06	0.0	1.0	26750000.0	1.153e-07	1.814e-08	6.416e-11	4.264e-11	1.308e-11	8.391e-07	1.232e-09	3.296e-06	2.985e-06	6.15e-06	3.038e-06	0.0	5.121e-06	0.0	0.0	1.0	365600.0	9.465e-08	1.586e-08	5.608e-11	3.528e-11	8.415e-10	5.81e-05	6.484e-08	2.483e-06	2.2e-06	0.001142	0.0005677	2.004e-08	4.181e-06	0.0	0.0	0.0	0.0	0.9982	1790.0	0.008891	0.001468	5.192e-06	3.29e-06	5.498e-10	3.876e-05	1.055e-06	5.852e-10	5.754e-10	0.1068	0.01488	0.0	0.8679	3.281	0.002349	0.1845	0.0006525	2.598e-05	0.0004848	0.8119	5.34e-09	1.704e-05	6.476e-06	2.757e-07	0.0	0.0	0.0	0.0	1.317	1.0	0.0
83	1	48.531071611464014	271357.0029276132	1897.1675758430868	166.61791818404134	836.2555627571927	1689.637413958176	1792.3249109198252	-0.23071933742043882	0.18392555797558163	-1.552631054491913	253.91334346311035	119700000.0	4.847e-12	7.321e-13	2.589e-15	1.826e-15	2.371e-13	1.421e-08	2.679e-11	2.375e-06	2.105e-06	6.262e-08	3.077e-08	0.0	2.544e-06	0.0	1.0	2711000.0	4.486e-12	7.524e-13	2.66e-15	1.689e-15	2.194e-13	1.521e-08	1.616e-11	1.051e-06	9.521e-07	2.351e-07	1.169e-07	0.0	3.756e-05	0.419	0.0	0.5809	6457000.0	3.228e-09	5.46e-10	1.931e-12	1.215e-12	1.579e-10	1.1e-05	1.109e-08	7.034e-07	6.489e-07	0.0002721	0.0001355	0.0	2.388e-05	0.5862	0.0	0.0	0.0	0.4133	5425.0	1.756e-09	3.077e-10	1.088e-12	6.324e-13	8.906e-11	6.311e-06	6.828e-09	2.05e-11	8.526e-12	0.1972	8.827e-05	2.603e-06	0.8027	2.124e-06	0.001043	0.06899	0.000244	1.098e-05	0.02714	0.8995	0.001442	7.209e-06	0.001585	7.3e-05	0.0	0.0	0.0	0.0	1.317	1.0	1.432e-06
84	1	13.087209183802951	886394.60281296	239.454716034474	1975.1271561760557	102.78785564114474	685.2752284824583	1177.6080449269814	-1.2043038479734651	1.495416961714683	0.2965675487956354	586.1560917881674	1.29e-05	0.7923	0.08192	0.0002902	0.0002994	0.03881	0.0	0.06885	0.0005634	7.024e-05	0.01543	0.001432	0.0	0.0	0.0	0.0	2592000.0	1.423e-09	2.082e-10	7.363e-13	5.36e-13	6.96e-11	3.713e-06	8.265e-09	4.477e-10	3.975e-10	1.667e-05	8.128e-06	1.392e-05	0.0	6.976e-06	1.0	0.0	702400.0	1.355e-08	2.156e-09	7.625e-12	5.103e-12	6.629e-10	4.393e-05	6.304e-08	1.37e-09	2.233e-09	0.0003954	0.0001959	0.000298	0.0	1.441e-05	0.009426	0.0	0.9896	0.0	0.001009	0.023	0.00287	1.015e-05	8.243e-06	0.001162	0.0	0.03856	0.0001004	1.731e-05	0.9343	0.0	0.0	0.0	3644.0	6.623e-11	6.557e-09	2.318e-11	7.004e-13	1.728e-09	0.0001309	9.178e-11	4.584e-13	2.139e-07	9.851e-09	0.0007128	0.2562	0.08269	0.6602	1.317	1.0	0.0
85	4	32.30446130668539	-429954.38505080435	1148.5093345375228	309.24195938607414	123.86722145290726	694.3142959273575	1162.4552980742387	-0.25490012833672515	-0.06308237237383252	-1.0857429409204884	1142.1555105289754	2.447	0.9425	6.639e-06	2.351e-08	0.0003486	3.028e-06	0.0	0.001824	0.0507	0.004568	1.496e-05	1.834e-06	0.0	0.0	0.0	0.0	1535000.0	2.68e-08	2.031e-10	7.182e-13	9.957e-12	6.775e-11	3.65e-06	8.095e-09	1.126e-06	9.912e-07	1.413e-05	6.893e-06	0.0	1.652e-07	0.8173	0.0	0.1827	18370000.0	5.406e-08	9.452e-11	3.342e-13	2.004e-11	2.911e-11	1.924e-06	2.915e-09	6.836e-07	6.116e-07	1.963e-05	9.723e-06	1.561e-15	2.242e-06	0.756	0.003494	0.0	0.0	0.2405	1240.0	0.0125	1.838e-09	6.501e-12	4.625e-06	5.722e-10	4.007e-05	1.821e-06	4.029e-10	8.225e-10	0.3593	0.0002319	0.0	0.6279	6.537	0.001314	9.393e-08	3.322e-10	1.453e-05	0.0002712	0.4207	2.308e-09	9.533e-06	2.558e-06	1.061e-07	0.5777	0.0	0.0	0.0	1.317	1.0	0.0
86	3	20.505923575585843	683262.1893848293	1697.2279113059776	566.6959576577251	158.14206989041384	480.66791001705184	1273.2834553525715	-0.18288620574358316	-1.0594167305807742	1.179420809300483	1988.0278915749584	0.03513	0.0006578	0.9096	0.003219	2.483e-07	3.22e-05	0.0	0.0001428	0.06389	0.01694	0.005137	0.0003483	0.0	0.0	0.0	0.0	7552000.0	4.998e-11	4.131e-08	1.461e-10	1.884e-14	2.446e-12	7.815e-08	2.625e-10	3.303e-08	2.727e-08	2.919e-07	1.389e-07	0.0	0.0	1.0	0.0	0.0	1966000.0	7.854e-09	1.43e-08	5.057e-11	2.957e-12	3.842e-10	2.58e-05	3.475e-08	2.709e-07	2.392e-07	0.0003051	0.0001513	0.0	1.475e-05	0.07244	0.3943	0.4874	0.0	0.04536	3493.0	1.389e-08	0.0004234	1.497e-06	5e-12	7.041e-10	4.982e-05	5.971e-08	2.679e-10	7.478e-11	0.1043	0.2554	0.001515	0.6383	10.79	3.147e-09	0.04577	0.0001618	3.321e-11	8.208e-08	0.005494	4.36e-09	2.178e-11	8.976e-06	4.134e-07	0.9446	0.003984	0.0	0.0	1.317	1.0	0.0
87	3	25.629649898277034	-682175.1769253009	1541.1702066754237	1903.7683837290892	724.5132598919413	740.3335592345933	1923.1180791889856	-1.4021321772556694	0.9340179586585684	0.8670778397859347	919.3466449581363	66.86	5.232e-05	0.0001472	5.204e-07	1.971e-08	2.56e-06	0.142	0.0003013	2.614e-06	3.432e-06	0.5759	0.2815	0.0	0.0	0.0	0.0	112.3	4.691e-05	0.002571	9.092e-06	1.768e-08	2.295e-06	0.1291	0.0002689	5.466e-05	5.572e-05	0.5828	0.2851	0.0	0.0	0.0	0.0	0.0	6931000.0	4.993e-10	2.662e-07	9.413e-10	1.879e-13	2.442e-11	1.708e-06	1.62e-09	6.868e-08	6.175e-08	4.056e-05	2.02e-05	1.027e-05	7.643e-13	0.001339	0.07916	0.9194	0.0	0.0	147.9	1.933e-07	0.01418	5.014e-05	6.957e-11	9.797e-09	0.0006921	9.045e-07	4.98e-09	1.123e-09	0.05648	0.9286	0.0	0.0	462.2	1.319e-10	0.005606	1.982e-05	1.395e-12	3.441e-09	0.0002604	1.828e-10	9.129e-13	4.257e-07	1.96e-08	0.04566	0.7627	0.0	0.1858	1.317	1.0	0.0
88	2	8.880232220473024	-222641.1985545631	1999.2915170324172	1650.2285607882095	647.8698109416548	694.4198139064436	1917.425651774777	-0.04008169124272354	1.3408340530171015	0.3715756232699201	957.5149613652238	0.07747	0.4901	0.07178	0.0002538	0.0001813	4.938e-07	0.02514	0.0001522	2.976e-05	3.077e-05	0.2774	0.1349	0.0	0.0	0.0	0.0	144.5	0.0005342	7.937e-05	2.807e-07	1.964e-07	3.005e-06	0.1619	0.0003534	1.406e-07	2.386e-06	0.5626	0.2745	0.0	0.0	0.0	0.0	0.0	14240.0	0.0001096	1.891e-05	6.685e-08	4.059e-08	8.628e-09	0.0006034	6.563e-07	4.65e-07	4.928e-07	0.02888	0.01438	0.0	0.003792	0.0782	0.3766	0.4974	0.0	0.0	567.3	0.003319	0.0005759	2.036e-06	1.228e-06	2.661e-08	0.001887	3.014e-06	6.684e-09	3.216e-09	0.1698	0.5487	1.08e-05	0.2756	191.3	1.392e-05	0.00141	4.985e-06	1.541e-07	2.936e-06	0.01269	3.465e-09	1.01e-07	7.556e-06	3.478e-07	0.2384	0.7475	0.0	0.0	1.317	1.0	0.0
89	1	46.47848024067244	598213.502292115	191.99024515868481	1182.0275188100534	277.4598176834584	359.2211581191161	794.3242826546349	0.010076422323215484	-1.1713578682188066	-0.7932699134268814	728.086067280264	0.01622	4.345e-06	5.444e-07	1.925e-09	1.639e-09	2.126e-07	2.298e-08	3.79e-06	0.5304	0.3465	0.03884	0.01693	0.06732	0.0	0.0	0.0	9.415	0.0002909	3.818e-05	1.35e-07	1.097e-07	1.423e-05	0.04417	0.0007716	0.005582	0.00412	0.5428	0.249	0.1532	0.0	0.0	0.0	0.0	346400000.0	1.64e-11	2.458e-12	8.692e-15	6.18e-15	8.026e-13	4.695e-08	9.227e-11	1.79e-09	1.562e-09	2.353e-07	1.154e-07	1.469e-07	0.0	0.05781	0.284	0.3006	0.3576	0.0	3.278e-06	0.47	0.05617	0.0001987	0.0001683	0.02374	0.0	0.4485	0.001045	0.0001377	0.0	0.0	0.0	0.0	776.2	1.586e-11	1.461e-09	5.165e-12	1.675e-13	4.139e-10	3.081e-05	2.198e-11	1.098e-13	5.036e-08	2.319e-09	0.08755	0.2359	0.04181	0.6348	1.317	1.0	0.0
90	4	4.200644819334525	965708.2840807242	1734.9290850411371	28.81281760031164	89.216195381204	1289.2075328407902	1322.3292111588855	0.7788084214198152	-0.21374591341812677	0.8935435133967529	736.4557174570243	707600.0	2.326e-08	1.298e-10	4.6e-13	8.653e-12	6.333e-11	0.0	8.66e-11	3.33e-06	0.0	3.851e-12	8.23e-13	0.0	3.073e-10	0.0	1.0	8243.0	3.841e-06	1.082e-07	3.826e-10	1.411e-09	3.282e-08	0.002208	2.892e-06	1.851e-07	1.207e-07	0.01826	0.009057	0.0	0.03318	0.8807	0.0	0.0566	27700.0	4.64e-06	2.224e-08	7.865e-11	1.712e-09	6.721e-09	0.0004538	5.717e-07	4.264e-07	3.42e-07	0.002371	0.001176	0.0	0.02894	0.7149	0.0	0.0	0.0	0.2522	3950.0	9.45e-05	5.158e-08	1.824e-10	3.501e-08	1.512e-08	0.00107	1.401e-06	3.811e-09	1.629e-09	0.1144	0.007193	0.01583	0.8614	3.295e-05	0.687	0.1019	0.0003631	0.007365	0.1954	0.0	0.003109	0.004879	0.0	0.0	0.0	0.0	0.0	0.0	1.407	0.9359	0.06414
91	3	1.1669671875436343	-931930.1182350856	629.208587939378	1108.8475480618547	361.171993340645	403.6769991634392	440.1835217271091	-0.4414335601405457	-0.5049908079664287	0.7022586427918762	274.7453910778195	1.127	0.001226	0.0009822	3.474e-06	4.622e-07	5.997e-05	0.2167	0.003345	2.57e-05	3.379e-05	0.5329	0.2447	0.0	0.0	0.0	0.0	18.91	0.0001774	3.87e-05	1.369e-07	6.689e-08	8.68e-06	0.1324	0.0007156	2.942e-06	1.981e-05	0.5909	0.2757	0.0	0.0	0.0	0.0	0.0	16.69	0.0003835	4.335e-07	1.533e-09	1.446e-07	1.876e-05	0.451	0.00182	2.218e-06	8.017e-06	0.3716	0.1752	0.0	0.0	0.0	0.0	0.0	0.0	0.0	38.07	0.0001699	4.664e-05	1.649e-07	6.104e-08	8.597e-06	0.5634	0.001572	4.644e-06	1.415e-06	0.3787	0.003306	0.05273	0.0	467.0	3.961e-08	6.7e-06	2.369e-08	4.183e-10	1.033e-06	0.07664	5.489e-08	2.742e-10	0.0001253	5.769e-06	0.4771	0.006103	0.1548	0.2852	1.317	1.0	0.0
92	1	25.417143914806918	702436.2044871089	1513.363013190539	1600.2383070601174	19.907013635081356	267.8862161329686	769.1236037298166	-0.43859881630908215	-1.1184822267916532	-0.1116699494243989	897.2243521234626	2.094e-05	0.8618	0.06472	0.0002402	0.0003703	0.04821	0.0	0.01995	0.004713	0.0	4.747e-08	1.582e-08	0.0	0.0	0.0	0.0	2875000.0	1.379e-09	1.717e-10	6.071e-13	5.202e-13	6.748e-11	9.775e-13	1.085e-09	1.637e-10	2.586e-10	1.15e-06	4.97e-07	0.0	0.0	1.0	0.0	0.0	17380000.0	4.783e-11	7.131e-12	2.522e-14	1.802e-14	2.34e-12	1.346e-07	2.716e-10	1.781e-09	1.598e-09	4.731e-07	2.318e-07	0.0	0.0	0.4132	0.4662	0.1206	0.0	0.0	610.8	4.686e-08	7.946e-09	2.81e-11	1.687e-11	2.375e-09	0.0001677	2.228e-07	6.635e-10	2.624e-10	0.2985	0.1445	0.5568	0.0	774.6	6.891e-11	6.626e-09	2.343e-11	7.283e-13	1.798e-09	0.0001355	9.55e-11	4.77e-13	2.215e-07	1.02e-08	0.2792	0.1366	0.5839	0.0001122	1.317	1.0	0.0
93	4	21.384127019965586	-89148.39632941259	1654.1491617213987	1116.2416450237588	392.85120811444614	507.2372977998273	1062.056636511145	0.6488350747608682	1.4266032125966897	0.5534718015935427	1803.8561402002483	0.2527	0.1438	2.434e-05	8.606e-08	5.324e-05	8.929e-06	0.1104	0.0005178	1.832e-05	2.691e-05	0.5087	0.2365	0.0	0.0	0.0	0.0	10.19	0.2898	1.366e-05	4.831e-08	0.0001072	4.798e-06	0.1739	0.0007115	4.346e-05	4.061e-05	0.3622	0.1732	0.0	0.0	0.0	0.0	0.0	107400.0	7.411e-06	1.767e-08	6.248e-11	2.748e-09	5.517e-09	0.0003576	5.771e-07	8.441e-09	1.609e-08	0.00309	0.001528	0.0	0.0	0.0004183	0.04718	0.9474	0.0	0.0	1489.0	0.006231	5.034e-09	1.78e-11	2.305e-06	1.486e-09	0.0001051	8.733e-07	5.256e-10	5.754e-10	0.01009	0.6537	0.01868	0.3112	207.5	5.325e-05	2.438e-08	8.621e-11	5.893e-07	1.1e-05	0.03083	7.235e-10	3.865e-07	8.631e-07	3.89e-08	0.0176	0.9515	3.634e-07	0.0	1.317	1.0	0.0
94	2	11.509048572382891	584546.3720562849	903.5955312900431	251.72158938540656	1148.090921257992	1377.8995724292197	1944.383960963591	-0.023221897267914793	0.4159894939336839	0.27526028918022294	1412.289028378128	854100.0	1.941e-06	3.109e-07	1.099e-09	7.181e-10	3.907e-13	2.576e-08	1.434e-10	2.495e-06	2.255e-06	1.866e-06	9.24e-07	2.127e-05	0.0008218	0.0	0.9991	1717.0	1.022e-05	1.698e-06	6.003e-09	3.715e-09	4.684e-07	0.0318	3.971e-05	1.595e-07	7.261e-07	0.4378	0.2174	0.002542	0.02601	0.0	0.0	0.2845	47650.0	1.02e-05	1.762e-06	6.229e-09	3.776e-09	1.681e-09	0.0001177	1.211e-07	1.463e-06	1.393e-06	0.004314	0.002148	0.003313	0.01317	0.0	0.0	0.0	0.1492	0.8278	370.9	0.004332	0.0006687	2.365e-06	1.603e-06	1.23e-08	0.0008491	3.651e-06	6.341e-09	2.537e-09	0.0	0.0	0.0	0.9941	0.286	0.00322	0.2415	0.0008542	3.56e-05	0.0006692	0.7534	2.673e-07	2.336e-05	0.0002212	1.017e-05	0.0	0.0	0.0	0.0	1.317	1.0	0.0
95	4	16.559026870396004	-171987.6692822287	554.0399231794235	1555.4679292991905	534.9383638388775	827.9457902680197	1721.399119517848	-1.0240690777108847	0.436129244514726	0.23240038498555426	706.349547699378	45.08	0.01058	1.479e-05	5.231e-08	3.906e-06	5.149e-06	0.2063	0.0006063	6.902e-07	6.438e-06	0.5286	0.2538	0.0	0.0	0.0	0.0	131.8	0.01434	4.531e-06	1.602e-08	5.309e-06	1.47e-06	0.0877	0.0001814	3.755e-06	6.081e-06	0.5285	0.2596	0.1096	0.0	0.0	0.0	0.0	326100.0	2.983e-06	5.879e-10	2.079e-12	1.103e-09	1.71e-10	1.187e-05	1.048e-08	2.172e-08	1.837e-08	0.0002119	0.0001054	0.000656	7.618e-06	0.07841	0.3652	0.2191	0.3363	0.0	2.3	0.959	1.82e-06	6.437e-09	0.0003548	6.354e-07	0.04013	0.0005078	4.182e-07	1.785e-07	3.101e-07	0.0	0.0	0.0	1288.0	6.833e-06	9.127e-09	3.227e-11	7.563e-08	1.414e-06	0.004142	2.24e-10	4.959e-08	3.084e-07	1.409e-08	0.1737	0.1914	0.0	0.6308	1.317	1.0	0.0
96	1	46.45827369258616	-825092.6477184992	1683.667421189995	1097.0011436907973	108.64066940621743	702.5562404128706	1717.2150430630647	-0.5936714367811887	0.93698999810593	-0.7968218987699952	93.91635619211463	0.002453	0.09621	0.01006	3.563e-05	3.635e-05	0.004711	0.0	0.00937	0.8532	0.02145	0.00454	0.0004105	0.0	0.0	0.0	0.0	284400000.0	2.302e-12	3.382e-13	1.196e-15	8.673e-16	1.126e-13	6.119e-09	1.333e-11	7.209e-09	6.312e-09	2.758e-08	1.346e-08	0.0	0.0	1.0	0.0	0.0	10650000.0	1.638e-09	2.754e-10	9.738e-13	6.167e-13	8.014e-11	5.562e-06	5.826e-09	2.424e-08	2.102e-08	0.0001243	6.183e-05	0.0	4.694e-07	0.07998	0.4464	0.4734	0.0	0.0	1607.0	5.841e-09	1.006e-09	3.557e-12	2.103e-12	2.962e-10	2.095e-05	2.529e-08	7.561e-11	3.064e-11	0.2365	0.4027	0.0	0.3607	164.5	7.03e-11	6.402e-09	2.264e-11	7.423e-13	1.834e-09	0.0001359	9.741e-11	4.865e-13	2.221e-07	1.023e-08	0.6234	0.3765	0.0	0.0	1.317	1.0	0.0
97	1	29.137555978721082	342123.41019716207	136.29442905623984	64.40892193858139	485.25578978380753	1053.9431678571889	1116.0001490785673	-0.13378495229082876	-0.3106672252428522	0.05023368711943044	751.189072167801	66340000.0	1.77e-12	2.447e-13	8.655e-16	6.672e-16	8.66e-14	2.835e-09	9.369e-12	1.395e-06	1.105e-06	4.201e-09	2e-09	3.452e-07	8.809e-07	0.3002	0.6998	1686000.0	8.084e-09	1.265e-09	4.474e-12	3.045e-12	3.955e-10	2.559e-05	4.014e-08	6.626e-07	5.932e-07	0.0002128	0.0001052	2.772e-06	5.801e-06	0.3657	0.2074	0.4266	5859000.0	2.049e-11	3.235e-12	1.144e-14	7.718e-15	1.003e-12	6.573e-08	9.849e-11	4.402e-07	3.86e-07	4.779e-07	2.365e-07	6.506e-06	1.355e-05	0.5887	0.0	0.0	0.1349	0.2764	0.003913	0.0007602	8.499e-05	3.006e-07	2.717e-07	3.836e-05	0.0	0.0003496	6.971e-07	3.399e-08	0.0	0.0	0.0	0.9988	2.388e-07	0.01207	0.6574	0.002328	0.000126	0.3115	0.0	0.01654	8.303e-05	0.0	0.0	0.0	0.0	0.0	0.0	1.318	0.999	0.001009
98	4	25.289222367184596	932959.7813878432	620.4456810922495	1323.5376696727747	250.414562801863	1203.5185596078686	1280.9610181493288	-0.013139556841518019	-0.14816490686305483	0.5311713144267114	1706.1112374138736	2.635	0.9944	3.33e-08	1.178e-10	0.0003678	1.326e-08	0.0	0.0007894	0.002123	0.001285	0.0007117	0.0003015	0.0	0.0	0.0	0.0	2022000.0	3.646e-08	9.162e-10	3.24e-12	1.359e-11	2.807e-10	1.868e-05	2.654e-08	6.956e-09	5.387e-09	0.000202	0.0001001	2.908e-07	0.0	0.9997	0.0	0.0	5693000.0	2.664e-08	1.206e-10	4.264e-13	9.829e-12	3.661e-11	2.46e-06	3.18e-09	1.156e-09	1.226e-09	2.942e-05	1.459e-05	1.04e-06	0.0	0.9828	0.0	0.0	0.0172	0.0	45.95	0.1231	4.375e-08	1.547e-10	4.553e-05	1.499e-08	0.0009791	4.082e-05	1.179e-08	1.184e-08	0.8759	0.0	0.0	0.0	1022.0	1.748e-05	4.194e-09	1.483e-11	1.935e-07	3.612e-06	0.01014	2.289e-10	1.269e-07	1.492e-07	6.589e-09	0.6441	4.275e-06	4.064e-09	0.3457	1.317	1.0	0.0
99	4	6.698131704757238	-234423.07006550767	111.7254097245631	73.121634040514	1399.3021467304106	1431.043720300291	1984.9345992688402	-1.4728134717628532	-0.6077443039609226	0.7702653018416332	844.4282171703567	1070.0	4.785e-06	1.849e-06	6.538e-09	1.722e-09	5.541e-07	0.0377	4.657e-05	2.124e-07	2.09e-07	0.5132	0.2549	0.03257	0.06605	0.03081	0.06474	110700.0	4.208e-06	2.9e-09	1.026e-11	1.555e-09	8.664e-10	5.91e-05	6.618e-08	9.764e-07	8.901e-07	0.0003719	0.0001847	0.005296	0.01073	0.0	0.3262	0.6572	157700.0	2.945e-06	6.042e-09	2.137e-11	1.092e-09	1.723e-09	0.0001207	1.165e-07	1.13e-06	9.8e-07	0.005098	0.002539	0.005306	0.01068	0.0	0.0	0.0	0.3248	0.6515	0.09845	0.9964	5.239e-05	1.853e-07	0.0003678	2.459e-05	0.0	0.001721	1.173e-07	8.124e-10	0.0	0.0	0.0	0.00147	0.0001462	0.7898	0.02306	8.165e-05	0.00866	0.1721	0.0	0.000565	0.005704	0.0	0.0	0.0	0.0	0.0	0.0	1.354	0.9727	0.02729
